<?xml version="1.0" encoding="utf-8"?>
<!DOCTYPE eagle SYSTEM "eagle.dtd">
<eagle version="9.1.3">
<drawing>
<settings>
<setting alwaysvectorfont="no"/>
<setting verticaltext="up"/>
</settings>
<grid distance="0.1" unitdist="inch" unit="inch" style="lines" multiple="1" display="no" altdistance="0.01" altunitdist="inch" altunit="inch"/>
<layers>
<layer number="1" name="Top" color="4" fill="1" visible="no" active="no"/>
<layer number="16" name="Bottom" color="1" fill="1" visible="no" active="no"/>
<layer number="17" name="Pads" color="2" fill="1" visible="no" active="no"/>
<layer number="18" name="Vias" color="2" fill="1" visible="no" active="no"/>
<layer number="19" name="Unrouted" color="6" fill="1" visible="no" active="no"/>
<layer number="20" name="Dimension" color="15" fill="1" visible="no" active="no"/>
<layer number="21" name="tPlace" color="7" fill="1" visible="no" active="no"/>
<layer number="22" name="bPlace" color="7" fill="1" visible="no" active="no"/>
<layer number="23" name="tOrigins" color="15" fill="1" visible="no" active="no"/>
<layer number="24" name="bOrigins" color="15" fill="1" visible="no" active="no"/>
<layer number="25" name="tNames" color="7" fill="1" visible="no" active="no"/>
<layer number="26" name="bNames" color="7" fill="1" visible="no" active="no"/>
<layer number="27" name="tValues" color="7" fill="1" visible="no" active="no"/>
<layer number="28" name="bValues" color="7" fill="1" visible="no" active="no"/>
<layer number="29" name="tStop" color="7" fill="3" visible="no" active="no"/>
<layer number="30" name="bStop" color="7" fill="6" visible="no" active="no"/>
<layer number="31" name="tCream" color="7" fill="4" visible="no" active="no"/>
<layer number="32" name="bCream" color="7" fill="5" visible="no" active="no"/>
<layer number="33" name="tFinish" color="6" fill="3" visible="no" active="no"/>
<layer number="34" name="bFinish" color="6" fill="6" visible="no" active="no"/>
<layer number="35" name="tGlue" color="7" fill="4" visible="no" active="no"/>
<layer number="36" name="bGlue" color="7" fill="5" visible="no" active="no"/>
<layer number="37" name="tTest" color="7" fill="1" visible="no" active="no"/>
<layer number="38" name="bTest" color="7" fill="1" visible="no" active="no"/>
<layer number="39" name="tKeepout" color="4" fill="11" visible="no" active="no"/>
<layer number="40" name="bKeepout" color="1" fill="11" visible="no" active="no"/>
<layer number="41" name="tRestrict" color="4" fill="10" visible="no" active="no"/>
<layer number="42" name="bRestrict" color="1" fill="10" visible="no" active="no"/>
<layer number="43" name="vRestrict" color="2" fill="10" visible="no" active="no"/>
<layer number="44" name="Drills" color="7" fill="1" visible="no" active="no"/>
<layer number="45" name="Holes" color="7" fill="1" visible="no" active="no"/>
<layer number="46" name="Milling" color="3" fill="1" visible="no" active="no"/>
<layer number="47" name="Measures" color="7" fill="1" visible="no" active="no"/>
<layer number="48" name="Document" color="7" fill="1" visible="no" active="no"/>
<layer number="49" name="Reference" color="7" fill="1" visible="no" active="no"/>
<layer number="51" name="tDocu" color="7" fill="1" visible="no" active="no"/>
<layer number="52" name="bDocu" color="7" fill="1" visible="no" active="no"/>
<layer number="88" name="SimResults" color="9" fill="1" visible="yes" active="yes"/>
<layer number="89" name="SimProbes" color="9" fill="1" visible="yes" active="yes"/>
<layer number="90" name="Modules" color="5" fill="1" visible="yes" active="yes"/>
<layer number="91" name="Nets" color="2" fill="1" visible="yes" active="yes"/>
<layer number="92" name="Busses" color="1" fill="1" visible="yes" active="yes"/>
<layer number="93" name="Pins" color="2" fill="1" visible="no" active="yes"/>
<layer number="94" name="Symbols" color="4" fill="1" visible="yes" active="yes"/>
<layer number="95" name="Names" color="7" fill="1" visible="yes" active="yes"/>
<layer number="96" name="Values" color="7" fill="1" visible="yes" active="yes"/>
<layer number="97" name="Info" color="7" fill="1" visible="yes" active="yes"/>
<layer number="98" name="Guide" color="6" fill="1" visible="yes" active="yes"/>
<layer number="99" name="SpiceOrder" color="5" fill="1" visible="yes" active="yes"/>
</layers>
<schematic xreflabel="%F%N/%S.%C%R" xrefpart="/%S.%C%R">
<libraries>
<library name="docu-dummy" urn="urn:adsk.eagle:library:215">
<description>Dummy symbols</description>
<packages>
</packages>
<symbols>
<symbol name="ELKO" urn="urn:adsk.eagle:symbol:13165/1" library_version="1">
<wire x1="-1.524" y1="-0.889" x2="1.524" y2="-0.889" width="0.254" layer="94"/>
<wire x1="1.524" y1="-0.889" x2="1.524" y2="0" width="0.254" layer="94"/>
<wire x1="-1.524" y1="0" x2="-1.524" y2="-0.889" width="0.254" layer="94"/>
<wire x1="-1.524" y1="0" x2="0" y2="0" width="0.254" layer="94"/>
<wire x1="0" y1="0" x2="1.524" y2="0" width="0.254" layer="94"/>
<wire x1="0" y1="0" x2="0" y2="2.54" width="0.1524" layer="94"/>
<wire x1="0" y1="-2.54" x2="0" y2="-5.08" width="0.1524" layer="94"/>
<text x="-0.5842" y="0.4064" size="1.27" layer="94" rot="R90">+</text>
<rectangle x1="-1.651" y1="-2.54" x2="1.651" y2="-1.651" layer="94"/>
</symbol>
<symbol name="DIODE" urn="urn:adsk.eagle:symbol:13159/1" library_version="1">
<wire x1="-1.27" y1="-1.27" x2="1.27" y2="0" width="0.254" layer="94"/>
<wire x1="1.27" y1="0" x2="-1.27" y2="1.27" width="0.254" layer="94"/>
<wire x1="1.27" y1="1.27" x2="1.27" y2="0" width="0.254" layer="94"/>
<wire x1="-1.27" y1="1.27" x2="-1.27" y2="-1.27" width="0.254" layer="94"/>
<wire x1="1.27" y1="0" x2="1.27" y2="-1.27" width="0.254" layer="94"/>
<wire x1="-2.54" y1="0" x2="2.54" y2="0" width="0.1524" layer="94"/>
</symbol>
</symbols>
<devicesets>
<deviceset name="ELKO" urn="urn:adsk.eagle:component:13177/1" prefix="C" library_version="1">
<description>&lt;b&gt;ELektrolyt Capacitor&lt;/b&gt;</description>
<gates>
<gate name="G$1" symbol="ELKO" x="0" y="0"/>
</gates>
<devices>
<device name="">
<technologies>
<technology name=""/>
</technologies>
</device>
</devices>
</deviceset>
<deviceset name="DIODE" urn="urn:adsk.eagle:component:13169/1" prefix="D" library_version="1">
<description>&lt;B&gt;DIODE&lt;/B&gt;&lt;p&gt;</description>
<gates>
<gate name="G$1" symbol="DIODE" x="0" y="0"/>
</gates>
<devices>
<device name="">
<technologies>
<technology name=""/>
</technologies>
</device>
</devices>
</deviceset>
</devicesets>
</library>
<library name="eagle-ltspice" urn="urn:adsk.eagle:library:217">
<description>Default symbols for import LTspice schematics&lt;p&gt;
2012-10-29 alf@cadsoft.de&lt;br&gt;</description>
<packages>
<package name="0204/7" urn="urn:adsk.eagle:footprint:13215/1" library_version="1">
<description>&lt;b&gt;RESISTOR&lt;/b&gt;&lt;p&gt;
type 0204, grid 7.5 mm</description>
<wire x1="3.81" y1="0" x2="2.921" y2="0" width="0.508" layer="51"/>
<wire x1="-3.81" y1="0" x2="-2.921" y2="0" width="0.508" layer="51"/>
<wire x1="-2.54" y1="0.762" x2="-2.286" y2="1.016" width="0.1524" layer="21" curve="-90"/>
<wire x1="-2.54" y1="-0.762" x2="-2.286" y2="-1.016" width="0.1524" layer="21" curve="90"/>
<wire x1="2.286" y1="-1.016" x2="2.54" y2="-0.762" width="0.1524" layer="21" curve="90"/>
<wire x1="2.286" y1="1.016" x2="2.54" y2="0.762" width="0.1524" layer="21" curve="-90"/>
<wire x1="-2.54" y1="-0.762" x2="-2.54" y2="0.762" width="0.1524" layer="21"/>
<wire x1="-2.286" y1="1.016" x2="-1.905" y2="1.016" width="0.1524" layer="21"/>
<wire x1="-1.778" y1="0.889" x2="-1.905" y2="1.016" width="0.1524" layer="21"/>
<wire x1="-2.286" y1="-1.016" x2="-1.905" y2="-1.016" width="0.1524" layer="21"/>
<wire x1="-1.778" y1="-0.889" x2="-1.905" y2="-1.016" width="0.1524" layer="21"/>
<wire x1="1.778" y1="0.889" x2="1.905" y2="1.016" width="0.1524" layer="21"/>
<wire x1="1.778" y1="0.889" x2="-1.778" y2="0.889" width="0.1524" layer="21"/>
<wire x1="1.778" y1="-0.889" x2="1.905" y2="-1.016" width="0.1524" layer="21"/>
<wire x1="1.778" y1="-0.889" x2="-1.778" y2="-0.889" width="0.1524" layer="21"/>
<wire x1="2.286" y1="1.016" x2="1.905" y2="1.016" width="0.1524" layer="21"/>
<wire x1="2.286" y1="-1.016" x2="1.905" y2="-1.016" width="0.1524" layer="21"/>
<wire x1="2.54" y1="-0.762" x2="2.54" y2="0.762" width="0.1524" layer="21"/>
<rectangle x1="2.54" y1="-0.254" x2="2.921" y2="0.254" layer="21"/>
<rectangle x1="-2.921" y1="-0.254" x2="-2.54" y2="0.254" layer="21"/>
<pad name="1" x="-3.81" y="0" drill="0.8128" shape="octagon"/>
<pad name="2" x="3.81" y="0" drill="0.8128" shape="octagon"/>
<text x="-2.54" y="1.2954" size="0.9906" layer="25" ratio="10">&gt;NAME</text>
<text x="-1.6256" y="-0.4826" size="0.9906" layer="27" ratio="10">&gt;VALUE</text>
</package>
<package name="0207/10" urn="urn:adsk.eagle:footprint:13216/1" library_version="1">
<description>&lt;b&gt;RESISTOR&lt;/b&gt;&lt;p&gt;
type 0207, grid 10 mm</description>
<wire x1="5.08" y1="0" x2="4.064" y2="0" width="0.6096" layer="51"/>
<wire x1="-5.08" y1="0" x2="-4.064" y2="0" width="0.6096" layer="51"/>
<wire x1="-3.175" y1="0.889" x2="-2.921" y2="1.143" width="0.1524" layer="21" curve="-90"/>
<wire x1="-3.175" y1="-0.889" x2="-2.921" y2="-1.143" width="0.1524" layer="21" curve="90"/>
<wire x1="2.921" y1="-1.143" x2="3.175" y2="-0.889" width="0.1524" layer="21" curve="90"/>
<wire x1="2.921" y1="1.143" x2="3.175" y2="0.889" width="0.1524" layer="21" curve="-90"/>
<wire x1="-3.175" y1="-0.889" x2="-3.175" y2="0.889" width="0.1524" layer="21"/>
<wire x1="-2.921" y1="1.143" x2="-2.54" y2="1.143" width="0.1524" layer="21"/>
<wire x1="-2.413" y1="1.016" x2="-2.54" y2="1.143" width="0.1524" layer="21"/>
<wire x1="-2.921" y1="-1.143" x2="-2.54" y2="-1.143" width="0.1524" layer="21"/>
<wire x1="-2.413" y1="-1.016" x2="-2.54" y2="-1.143" width="0.1524" layer="21"/>
<wire x1="2.413" y1="1.016" x2="2.54" y2="1.143" width="0.1524" layer="21"/>
<wire x1="2.413" y1="1.016" x2="-2.413" y2="1.016" width="0.1524" layer="21"/>
<wire x1="2.413" y1="-1.016" x2="2.54" y2="-1.143" width="0.1524" layer="21"/>
<wire x1="2.413" y1="-1.016" x2="-2.413" y2="-1.016" width="0.1524" layer="21"/>
<wire x1="2.921" y1="1.143" x2="2.54" y2="1.143" width="0.1524" layer="21"/>
<wire x1="2.921" y1="-1.143" x2="2.54" y2="-1.143" width="0.1524" layer="21"/>
<wire x1="3.175" y1="-0.889" x2="3.175" y2="0.889" width="0.1524" layer="21"/>
<rectangle x1="3.175" y1="-0.3048" x2="4.0386" y2="0.3048" layer="21"/>
<rectangle x1="-4.0386" y1="-0.3048" x2="-3.175" y2="0.3048" layer="21"/>
<pad name="1" x="-5.08" y="0" drill="0.8128" shape="octagon"/>
<pad name="2" x="5.08" y="0" drill="0.8128" shape="octagon"/>
<text x="-3.048" y="1.524" size="1.27" layer="25" ratio="10">&gt;NAME</text>
<text x="-2.2606" y="-0.635" size="1.27" layer="27" ratio="10">&gt;VALUE</text>
</package>
<package name="R0201" urn="urn:adsk.eagle:footprint:13233/1" library_version="1">
<description>&lt;b&gt;RESISTOR&lt;/b&gt; chip&lt;p&gt;
Source: http://www.vishay.com/docs/20008/dcrcw.pdf</description>
<rectangle x1="-0.3" y1="-0.15" x2="-0.15" y2="0.15" layer="51"/>
<rectangle x1="0.15" y1="-0.15" x2="0.3" y2="0.15" layer="51"/>
<rectangle x1="-0.15" y1="-0.15" x2="0.15" y2="0.15" layer="21"/>
<smd name="1" x="-0.255" y="0" dx="0.28" dy="0.43" layer="1"/>
<smd name="2" x="0.255" y="0" dx="0.28" dy="0.43" layer="1"/>
<text x="-0.635" y="0.635" size="1.27" layer="25">&gt;NAME</text>
<text x="-0.635" y="-1.905" size="1.27" layer="27">&gt;VALUE</text>
</package>
<package name="R0402" urn="urn:adsk.eagle:footprint:13234/1" library_version="1">
<description>&lt;b&gt;RESISTOR&lt;/b&gt;</description>
<wire x1="-0.245" y1="0.224" x2="0.245" y2="0.224" width="0.1524" layer="51"/>
<wire x1="0.245" y1="-0.224" x2="-0.245" y2="-0.224" width="0.1524" layer="51"/>
<wire x1="-1.473" y1="0.483" x2="1.473" y2="0.483" width="0.0508" layer="39"/>
<wire x1="1.473" y1="0.483" x2="1.473" y2="-0.483" width="0.0508" layer="39"/>
<wire x1="1.473" y1="-0.483" x2="-1.473" y2="-0.483" width="0.0508" layer="39"/>
<wire x1="-1.473" y1="-0.483" x2="-1.473" y2="0.483" width="0.0508" layer="39"/>
<rectangle x1="-0.554" y1="-0.3048" x2="-0.254" y2="0.2951" layer="51"/>
<rectangle x1="0.2588" y1="-0.3048" x2="0.5588" y2="0.2951" layer="51"/>
<rectangle x1="-0.1999" y1="-0.4001" x2="0.1999" y2="0.4001" layer="35"/>
<smd name="1" x="-0.65" y="0" dx="0.7" dy="0.9" layer="1"/>
<smd name="2" x="0.65" y="0" dx="0.7" dy="0.9" layer="1"/>
<text x="-0.635" y="0.635" size="1.27" layer="25">&gt;NAME</text>
<text x="-0.635" y="-1.905" size="1.27" layer="27">&gt;VALUE</text>
</package>
<package name="R0603" urn="urn:adsk.eagle:footprint:13235/1" library_version="1">
<description>&lt;b&gt;RESISTOR&lt;/b&gt;</description>
<wire x1="-0.432" y1="-0.356" x2="0.432" y2="-0.356" width="0.1524" layer="51"/>
<wire x1="0.432" y1="0.356" x2="-0.432" y2="0.356" width="0.1524" layer="51"/>
<wire x1="-1.473" y1="0.983" x2="1.473" y2="0.983" width="0.0508" layer="39"/>
<wire x1="1.473" y1="0.983" x2="1.473" y2="-0.983" width="0.0508" layer="39"/>
<wire x1="1.473" y1="-0.983" x2="-1.473" y2="-0.983" width="0.0508" layer="39"/>
<wire x1="-1.473" y1="-0.983" x2="-1.473" y2="0.983" width="0.0508" layer="39"/>
<rectangle x1="0.4318" y1="-0.4318" x2="0.8382" y2="0.4318" layer="51"/>
<rectangle x1="-0.8382" y1="-0.4318" x2="-0.4318" y2="0.4318" layer="51"/>
<rectangle x1="-0.1999" y1="-0.4001" x2="0.1999" y2="0.4001" layer="35"/>
<smd name="1" x="-0.85" y="0" dx="1" dy="1.1" layer="1"/>
<smd name="2" x="0.85" y="0" dx="1" dy="1.1" layer="1"/>
<text x="-0.635" y="0.635" size="1.27" layer="25">&gt;NAME</text>
<text x="-0.635" y="-1.905" size="1.27" layer="27">&gt;VALUE</text>
</package>
<package name="R0805" urn="urn:adsk.eagle:footprint:13236/1" library_version="1">
<description>&lt;b&gt;RESISTOR&lt;/b&gt;&lt;p&gt;</description>
<wire x1="-0.41" y1="0.635" x2="0.41" y2="0.635" width="0.1524" layer="51"/>
<wire x1="-0.41" y1="-0.635" x2="0.41" y2="-0.635" width="0.1524" layer="51"/>
<wire x1="-1.973" y1="0.983" x2="1.973" y2="0.983" width="0.0508" layer="39"/>
<wire x1="1.973" y1="0.983" x2="1.973" y2="-0.983" width="0.0508" layer="39"/>
<wire x1="1.973" y1="-0.983" x2="-1.973" y2="-0.983" width="0.0508" layer="39"/>
<wire x1="-1.973" y1="-0.983" x2="-1.973" y2="0.983" width="0.0508" layer="39"/>
<rectangle x1="0.4064" y1="-0.6985" x2="1.0564" y2="0.7015" layer="51"/>
<rectangle x1="-1.0668" y1="-0.6985" x2="-0.4168" y2="0.7015" layer="51"/>
<rectangle x1="-0.1999" y1="-0.5001" x2="0.1999" y2="0.5001" layer="35"/>
<smd name="1" x="-0.95" y="0" dx="1.3" dy="1.5" layer="1"/>
<smd name="2" x="0.95" y="0" dx="1.3" dy="1.5" layer="1"/>
<text x="-0.635" y="1.27" size="1.27" layer="25">&gt;NAME</text>
<text x="-0.635" y="-2.54" size="1.27" layer="27">&gt;VALUE</text>
</package>
<package name="R1005" urn="urn:adsk.eagle:footprint:13237/1" library_version="1">
<description>&lt;b&gt;RESISTOR&lt;/b&gt;</description>
<wire x1="-0.245" y1="0.224" x2="0.245" y2="0.224" width="0.1524" layer="51"/>
<wire x1="0.245" y1="-0.224" x2="-0.245" y2="-0.224" width="0.1524" layer="51"/>
<wire x1="-1.473" y1="0.483" x2="1.473" y2="0.483" width="0.0508" layer="39"/>
<wire x1="1.473" y1="0.483" x2="1.473" y2="-0.483" width="0.0508" layer="39"/>
<wire x1="1.473" y1="-0.483" x2="-1.473" y2="-0.483" width="0.0508" layer="39"/>
<wire x1="-1.473" y1="-0.483" x2="-1.473" y2="0.483" width="0.0508" layer="39"/>
<rectangle x1="-0.554" y1="-0.3048" x2="-0.254" y2="0.2951" layer="51"/>
<rectangle x1="0.2588" y1="-0.3048" x2="0.5588" y2="0.2951" layer="51"/>
<rectangle x1="-0.1999" y1="-0.3" x2="0.1999" y2="0.3" layer="35"/>
<smd name="1" x="-0.65" y="0" dx="0.7" dy="0.9" layer="1"/>
<smd name="2" x="0.65" y="0" dx="0.7" dy="0.9" layer="1"/>
<text x="-0.635" y="0.635" size="1.27" layer="25">&gt;NAME</text>
<text x="-0.635" y="-1.905" size="1.27" layer="27">&gt;VALUE</text>
</package>
<package name="R1206" urn="urn:adsk.eagle:footprint:13238/1" library_version="1">
<description>&lt;b&gt;RESISTOR&lt;/b&gt;</description>
<wire x1="0.9525" y1="-0.8128" x2="-0.9652" y2="-0.8128" width="0.1524" layer="51"/>
<wire x1="0.9525" y1="0.8128" x2="-0.9652" y2="0.8128" width="0.1524" layer="51"/>
<wire x1="-2.473" y1="0.983" x2="2.473" y2="0.983" width="0.0508" layer="39"/>
<wire x1="2.473" y1="0.983" x2="2.473" y2="-0.983" width="0.0508" layer="39"/>
<wire x1="2.473" y1="-0.983" x2="-2.473" y2="-0.983" width="0.0508" layer="39"/>
<wire x1="-2.473" y1="-0.983" x2="-2.473" y2="0.983" width="0.0508" layer="39"/>
<rectangle x1="-1.6891" y1="-0.8763" x2="-0.9525" y2="0.8763" layer="51"/>
<rectangle x1="0.9525" y1="-0.8763" x2="1.6891" y2="0.8763" layer="51"/>
<rectangle x1="-0.3" y1="-0.7" x2="0.3" y2="0.7" layer="35"/>
<smd name="1" x="-1.422" y="0" dx="1.6" dy="1.803" layer="1"/>
<smd name="2" x="1.422" y="0" dx="1.6" dy="1.803" layer="1"/>
<text x="-1.27" y="1.27" size="1.27" layer="25">&gt;NAME</text>
<text x="-1.27" y="-2.54" size="1.27" layer="27">&gt;VALUE</text>
</package>
<package name="R1210" urn="urn:adsk.eagle:footprint:13239/1" library_version="1">
<description>&lt;b&gt;RESISTOR&lt;/b&gt;</description>
<wire x1="-0.913" y1="1.219" x2="0.939" y2="1.219" width="0.1524" layer="51"/>
<wire x1="-0.913" y1="-1.219" x2="0.939" y2="-1.219" width="0.1524" layer="51"/>
<wire x1="-2.473" y1="1.483" x2="2.473" y2="1.483" width="0.0508" layer="39"/>
<wire x1="2.473" y1="1.483" x2="2.473" y2="-1.483" width="0.0508" layer="39"/>
<wire x1="2.473" y1="-1.483" x2="-2.473" y2="-1.483" width="0.0508" layer="39"/>
<wire x1="-2.473" y1="-1.483" x2="-2.473" y2="1.483" width="0.0508" layer="39"/>
<rectangle x1="-1.651" y1="-1.3081" x2="-0.9009" y2="1.2918" layer="51"/>
<rectangle x1="0.9144" y1="-1.3081" x2="1.6645" y2="1.2918" layer="51"/>
<rectangle x1="-0.3" y1="-0.8999" x2="0.3" y2="0.8999" layer="35"/>
<smd name="1" x="-1.4" y="0" dx="1.6" dy="2.7" layer="1"/>
<smd name="2" x="1.4" y="0" dx="1.6" dy="2.7" layer="1"/>
<text x="-2.54" y="1.905" size="1.27" layer="25">&gt;NAME</text>
<text x="-2.54" y="-3.175" size="1.27" layer="27">&gt;VALUE</text>
</package>
<package name="R1218" urn="urn:adsk.eagle:footprint:13240/1" library_version="1">
<description>&lt;b&gt;CRCW1218 Thick Film, Rectangular Chip Resistors&lt;/b&gt;&lt;p&gt;
Source: http://www.vishay.com .. dcrcw.pdf</description>
<wire x1="-0.913" y1="-2.219" x2="0.939" y2="-2.219" width="0.1524" layer="51"/>
<wire x1="0.913" y1="2.219" x2="-0.939" y2="2.219" width="0.1524" layer="51"/>
<rectangle x1="-1.651" y1="-2.3" x2="-0.9009" y2="2.3" layer="51"/>
<rectangle x1="0.9144" y1="-2.3" x2="1.6645" y2="2.3" layer="51"/>
<smd name="1" x="-1.475" y="0" dx="1.05" dy="4.9" layer="1"/>
<smd name="2" x="1.475" y="0" dx="1.05" dy="4.9" layer="1"/>
<text x="-2.54" y="2.54" size="1.27" layer="25">&gt;NAME</text>
<text x="-2.54" y="-3.81" size="1.27" layer="27">&gt;VALUE</text>
</package>
<package name="R2010" urn="urn:adsk.eagle:footprint:13241/1" library_version="1">
<description>&lt;b&gt;RESISTOR&lt;/b&gt;</description>
<wire x1="-1.662" y1="1.245" x2="1.662" y2="1.245" width="0.1524" layer="51"/>
<wire x1="-1.637" y1="-1.245" x2="1.687" y2="-1.245" width="0.1524" layer="51"/>
<wire x1="-3.473" y1="1.483" x2="3.473" y2="1.483" width="0.0508" layer="39"/>
<wire x1="3.473" y1="1.483" x2="3.473" y2="-1.483" width="0.0508" layer="39"/>
<wire x1="3.473" y1="-1.483" x2="-3.473" y2="-1.483" width="0.0508" layer="39"/>
<wire x1="-3.473" y1="-1.483" x2="-3.473" y2="1.483" width="0.0508" layer="39"/>
<rectangle x1="-2.4892" y1="-1.3208" x2="-1.6393" y2="1.3292" layer="51"/>
<rectangle x1="1.651" y1="-1.3208" x2="2.5009" y2="1.3292" layer="51"/>
<smd name="1" x="-2.2" y="0" dx="1.8" dy="2.7" layer="1"/>
<smd name="2" x="2.2" y="0" dx="1.8" dy="2.7" layer="1"/>
<text x="-3.175" y="1.905" size="1.27" layer="25">&gt;NAME</text>
<text x="-3.175" y="-3.175" size="1.27" layer="27">&gt;VALUE</text>
</package>
<package name="R2012" urn="urn:adsk.eagle:footprint:13242/1" library_version="1">
<description>&lt;b&gt;RESISTOR&lt;/b&gt;</description>
<wire x1="-0.41" y1="0.635" x2="0.41" y2="0.635" width="0.1524" layer="51"/>
<wire x1="-0.41" y1="-0.635" x2="0.41" y2="-0.635" width="0.1524" layer="51"/>
<wire x1="-1.973" y1="0.983" x2="1.973" y2="0.983" width="0.0508" layer="39"/>
<wire x1="1.973" y1="0.983" x2="1.973" y2="-0.983" width="0.0508" layer="39"/>
<wire x1="1.973" y1="-0.983" x2="-1.973" y2="-0.983" width="0.0508" layer="39"/>
<wire x1="-1.973" y1="-0.983" x2="-1.973" y2="0.983" width="0.0508" layer="39"/>
<rectangle x1="0.4064" y1="-0.6985" x2="1.0564" y2="0.7015" layer="51"/>
<rectangle x1="-1.0668" y1="-0.6985" x2="-0.4168" y2="0.7015" layer="51"/>
<rectangle x1="-0.1001" y1="-0.5999" x2="0.1001" y2="0.5999" layer="35"/>
<smd name="1" x="-0.85" y="0" dx="1.3" dy="1.5" layer="1"/>
<smd name="2" x="0.85" y="0" dx="1.3" dy="1.5" layer="1"/>
<text x="-0.635" y="1.27" size="1.27" layer="25">&gt;NAME</text>
<text x="-0.635" y="-2.54" size="1.27" layer="27">&gt;VALUE</text>
</package>
<package name="R2512" urn="urn:adsk.eagle:footprint:13243/1" library_version="1">
<description>&lt;b&gt;RESISTOR&lt;/b&gt;</description>
<wire x1="-2.362" y1="1.473" x2="2.387" y2="1.473" width="0.1524" layer="51"/>
<wire x1="-2.362" y1="-1.473" x2="2.387" y2="-1.473" width="0.1524" layer="51"/>
<wire x1="-3.973" y1="1.983" x2="3.973" y2="1.983" width="0.0508" layer="39"/>
<wire x1="3.973" y1="1.983" x2="3.973" y2="-1.983" width="0.0508" layer="39"/>
<wire x1="3.973" y1="-1.983" x2="-3.973" y2="-1.983" width="0.0508" layer="39"/>
<wire x1="-3.973" y1="-1.983" x2="-3.973" y2="1.983" width="0.0508" layer="39"/>
<rectangle x1="-3.2004" y1="-1.5494" x2="-2.3505" y2="1.5507" layer="51"/>
<rectangle x1="2.3622" y1="-1.5494" x2="3.2121" y2="1.5507" layer="51"/>
<rectangle x1="-0.5001" y1="-1" x2="0.5001" y2="1" layer="35"/>
<smd name="1" x="-2.8" y="0" dx="1.8" dy="3.2" layer="1"/>
<smd name="2" x="2.8" y="0" dx="1.8" dy="3.2" layer="1"/>
<text x="-2.54" y="1.905" size="1.27" layer="25">&gt;NAME</text>
<text x="-2.54" y="-3.175" size="1.27" layer="27">&gt;VALUE</text>
</package>
<package name="R3216" urn="urn:adsk.eagle:footprint:13244/1" library_version="1">
<description>&lt;b&gt;RESISTOR&lt;/b&gt;</description>
<wire x1="-0.913" y1="0.8" x2="0.888" y2="0.8" width="0.1524" layer="51"/>
<wire x1="-0.913" y1="-0.8" x2="0.888" y2="-0.8" width="0.1524" layer="51"/>
<wire x1="-2.473" y1="0.983" x2="2.473" y2="0.983" width="0.0508" layer="39"/>
<wire x1="2.473" y1="0.983" x2="2.473" y2="-0.983" width="0.0508" layer="39"/>
<wire x1="2.473" y1="-0.983" x2="-2.473" y2="-0.983" width="0.0508" layer="39"/>
<wire x1="-2.473" y1="-0.983" x2="-2.473" y2="0.983" width="0.0508" layer="39"/>
<rectangle x1="-1.651" y1="-0.8763" x2="-0.9009" y2="0.8738" layer="51"/>
<rectangle x1="0.889" y1="-0.8763" x2="1.6391" y2="0.8738" layer="51"/>
<rectangle x1="-0.3" y1="-0.7" x2="0.3" y2="0.7" layer="35"/>
<smd name="1" x="-1.4" y="0" dx="1.6" dy="1.8" layer="1"/>
<smd name="2" x="1.4" y="0" dx="1.6" dy="1.8" layer="1"/>
<text x="-1.905" y="1.27" size="1.27" layer="25">&gt;NAME</text>
<text x="-1.905" y="-2.54" size="1.27" layer="27">&gt;VALUE</text>
</package>
<package name="R3225" urn="urn:adsk.eagle:footprint:13245/1" library_version="1">
<description>&lt;b&gt;RESISTOR&lt;/b&gt;</description>
<wire x1="-0.913" y1="1.219" x2="0.939" y2="1.219" width="0.1524" layer="51"/>
<wire x1="-0.913" y1="-1.219" x2="0.939" y2="-1.219" width="0.1524" layer="51"/>
<wire x1="-2.473" y1="1.483" x2="2.473" y2="1.483" width="0.0508" layer="39"/>
<wire x1="2.473" y1="1.483" x2="2.473" y2="-1.483" width="0.0508" layer="39"/>
<wire x1="2.473" y1="-1.483" x2="-2.473" y2="-1.483" width="0.0508" layer="39"/>
<wire x1="-2.473" y1="-1.483" x2="-2.473" y2="1.483" width="0.0508" layer="39"/>
<rectangle x1="-1.651" y1="-1.3081" x2="-0.9009" y2="1.2918" layer="51"/>
<rectangle x1="0.9144" y1="-1.3081" x2="1.6645" y2="1.2918" layer="51"/>
<rectangle x1="-0.3" y1="-1" x2="0.3" y2="1" layer="35"/>
<smd name="1" x="-1.4" y="0" dx="1.6" dy="2.7" layer="1"/>
<smd name="2" x="1.4" y="0" dx="1.6" dy="2.7" layer="1"/>
<text x="-2.54" y="1.905" size="1.27" layer="25">&gt;NAME</text>
<text x="-2.54" y="-3.175" size="1.27" layer="27">&gt;VALUE</text>
</package>
<package name="R4527" urn="urn:adsk.eagle:footprint:13246/1" library_version="1">
<description>&lt;b&gt;Package 4527&lt;/b&gt;&lt;p&gt;
Source: http://www.vishay.com/docs/31059/wsrhigh.pdf</description>
<wire x1="-5.675" y1="-3.375" x2="5.65" y2="-3.375" width="0.2032" layer="21"/>
<wire x1="5.65" y1="-3.375" x2="5.65" y2="3.375" width="0.2032" layer="51"/>
<wire x1="5.65" y1="3.375" x2="-5.675" y2="3.375" width="0.2032" layer="21"/>
<wire x1="-5.675" y1="3.375" x2="-5.675" y2="-3.375" width="0.2032" layer="51"/>
<smd name="1" x="-4.575" y="0" dx="3.94" dy="5.84" layer="1"/>
<smd name="2" x="4.575" y="0" dx="3.94" dy="5.84" layer="1"/>
<text x="-5.715" y="3.81" size="1.27" layer="25">&gt;NAME</text>
<text x="-5.715" y="-5.08" size="1.27" layer="27">&gt;VALUE</text>
</package>
<package name="R5025" urn="urn:adsk.eagle:footprint:13247/1" library_version="1">
<description>&lt;b&gt;RESISTOR&lt;/b&gt;</description>
<wire x1="-1.662" y1="1.245" x2="1.662" y2="1.245" width="0.1524" layer="51"/>
<wire x1="-1.637" y1="-1.245" x2="1.687" y2="-1.245" width="0.1524" layer="51"/>
<wire x1="-3.473" y1="1.483" x2="3.473" y2="1.483" width="0.0508" layer="39"/>
<wire x1="3.473" y1="1.483" x2="3.473" y2="-1.483" width="0.0508" layer="39"/>
<wire x1="3.473" y1="-1.483" x2="-3.473" y2="-1.483" width="0.0508" layer="39"/>
<wire x1="-3.473" y1="-1.483" x2="-3.473" y2="1.483" width="0.0508" layer="39"/>
<rectangle x1="-2.4892" y1="-1.3208" x2="-1.6393" y2="1.3292" layer="51"/>
<rectangle x1="1.651" y1="-1.3208" x2="2.5009" y2="1.3292" layer="51"/>
<rectangle x1="-0.5001" y1="-1" x2="0.5001" y2="1" layer="35"/>
<smd name="1" x="-2.2" y="0" dx="1.8" dy="2.7" layer="1"/>
<smd name="2" x="2.2" y="0" dx="1.8" dy="2.7" layer="1"/>
<text x="-3.175" y="1.905" size="1.27" layer="25">&gt;NAME</text>
<text x="-3.175" y="-3.175" size="1.27" layer="27">&gt;VALUE</text>
</package>
<package name="R6332" urn="urn:adsk.eagle:footprint:13248/1" library_version="1">
<description>&lt;b&gt;RESISTOR&lt;/b&gt;&lt;p&gt;
Source: http://download.siliconexpert.com/pdfs/2005/02/24/Semi_Ap/2/VSH/Resistor/dcrcwfre.pdf</description>
<wire x1="-2.362" y1="1.473" x2="2.387" y2="1.473" width="0.1524" layer="51"/>
<wire x1="-2.362" y1="-1.473" x2="2.387" y2="-1.473" width="0.1524" layer="51"/>
<wire x1="-3.973" y1="1.983" x2="3.973" y2="1.983" width="0.0508" layer="39"/>
<wire x1="3.973" y1="1.983" x2="3.973" y2="-1.983" width="0.0508" layer="39"/>
<wire x1="3.973" y1="-1.983" x2="-3.973" y2="-1.983" width="0.0508" layer="39"/>
<wire x1="-3.973" y1="-1.983" x2="-3.973" y2="1.983" width="0.0508" layer="39"/>
<rectangle x1="-3.2004" y1="-1.5494" x2="-2.3505" y2="1.5507" layer="51"/>
<rectangle x1="2.3622" y1="-1.5494" x2="3.2121" y2="1.5507" layer="51"/>
<rectangle x1="-0.5001" y1="-1" x2="0.5001" y2="1" layer="35"/>
<smd name="1" x="-3.1" y="0" dx="1" dy="3.2" layer="1"/>
<smd name="2" x="3.1" y="0" dx="1" dy="3.2" layer="1"/>
<text x="-2.54" y="1.905" size="1.27" layer="25">&gt;NAME</text>
<text x="-2.54" y="-3.175" size="1.27" layer="27">&gt;VALUE</text>
</package>
</packages>
<packages3d>
<package3d name="0204/7" urn="urn:adsk.eagle:package:13274/1" type="box" library_version="1">
<description>RESISTOR
type 0204, grid 7.5 mm</description>
<packageinstances>
<packageinstance name="0204/7"/>
</packageinstances>
</package3d>
<package3d name="0207/10" urn="urn:adsk.eagle:package:13275/1" type="box" library_version="1">
<description>RESISTOR
type 0207, grid 10 mm</description>
<packageinstances>
<packageinstance name="0207/10"/>
</packageinstances>
</package3d>
<package3d name="R0201" urn="urn:adsk.eagle:package:13294/1" type="box" library_version="1">
<description>RESISTOR chip
Source: http://www.vishay.com/docs/20008/dcrcw.pdf</description>
<packageinstances>
<packageinstance name="R0201"/>
</packageinstances>
</package3d>
<package3d name="R0402" urn="urn:adsk.eagle:package:13296/1" type="box" library_version="1">
<description>RESISTOR</description>
<packageinstances>
<packageinstance name="R0402"/>
</packageinstances>
</package3d>
<package3d name="R0603" urn="urn:adsk.eagle:package:13302/1" type="box" library_version="1">
<description>RESISTOR</description>
<packageinstances>
<packageinstance name="R0603"/>
</packageinstances>
</package3d>
<package3d name="R0805" urn="urn:adsk.eagle:package:13300/1" type="box" library_version="1">
<description>RESISTOR</description>
<packageinstances>
<packageinstance name="R0805"/>
</packageinstances>
</package3d>
<package3d name="R1005" urn="urn:adsk.eagle:package:13297/1" type="box" library_version="1">
<description>RESISTOR</description>
<packageinstances>
<packageinstance name="R1005"/>
</packageinstances>
</package3d>
<package3d name="R1206" urn="urn:adsk.eagle:package:13301/1" type="box" library_version="1">
<description>RESISTOR</description>
<packageinstances>
<packageinstance name="R1206"/>
</packageinstances>
</package3d>
<package3d name="R1210" urn="urn:adsk.eagle:package:13299/1" type="box" library_version="1">
<description>RESISTOR</description>
<packageinstances>
<packageinstance name="R1210"/>
</packageinstances>
</package3d>
<package3d name="R1218" urn="urn:adsk.eagle:package:13303/1" type="box" library_version="1">
<description>CRCW1218 Thick Film, Rectangular Chip Resistors
Source: http://www.vishay.com .. dcrcw.pdf</description>
<packageinstances>
<packageinstance name="R1218"/>
</packageinstances>
</package3d>
<package3d name="R2010" urn="urn:adsk.eagle:package:13309/1" type="box" library_version="1">
<description>RESISTOR</description>
<packageinstances>
<packageinstance name="R2010"/>
</packageinstances>
</package3d>
<package3d name="R2012" urn="urn:adsk.eagle:package:13306/1" type="box" library_version="1">
<description>RESISTOR</description>
<packageinstances>
<packageinstance name="R2012"/>
</packageinstances>
</package3d>
<package3d name="R2512" urn="urn:adsk.eagle:package:13304/1" type="box" library_version="1">
<description>RESISTOR</description>
<packageinstances>
<packageinstance name="R2512"/>
</packageinstances>
</package3d>
<package3d name="R3216" urn="urn:adsk.eagle:package:13305/1" type="box" library_version="1">
<description>RESISTOR</description>
<packageinstances>
<packageinstance name="R3216"/>
</packageinstances>
</package3d>
<package3d name="R3225" urn="urn:adsk.eagle:package:13311/1" type="box" library_version="1">
<description>RESISTOR</description>
<packageinstances>
<packageinstance name="R3225"/>
</packageinstances>
</package3d>
<package3d name="R4527" urn="urn:adsk.eagle:package:13310/1" type="box" library_version="1">
<description>Package 4527
Source: http://www.vishay.com/docs/31059/wsrhigh.pdf</description>
<packageinstances>
<packageinstance name="R4527"/>
</packageinstances>
</package3d>
<package3d name="R5025" urn="urn:adsk.eagle:package:13308/1" type="box" library_version="1">
<description>RESISTOR</description>
<packageinstances>
<packageinstance name="R5025"/>
</packageinstances>
</package3d>
<package3d name="R6332" urn="urn:adsk.eagle:package:13307/1" type="box" library_version="1">
<description>RESISTOR
Source: http://download.siliconexpert.com/pdfs/2005/02/24/Semi_Ap/2/VSH/Resistor/dcrcwfre.pdf</description>
<packageinstances>
<packageinstance name="R6332"/>
</packageinstances>
</package3d>
</packages3d>
<symbols>
<symbol name="R" urn="urn:adsk.eagle:symbol:13232/1" library_version="1">
<wire x1="-2.54" y1="-0.889" x2="2.54" y2="-0.889" width="0.254" layer="94"/>
<wire x1="2.54" y1="0.889" x2="-2.54" y2="0.889" width="0.254" layer="94"/>
<wire x1="2.54" y1="-0.889" x2="2.54" y2="0.889" width="0.254" layer="94"/>
<wire x1="-2.54" y1="-0.889" x2="-2.54" y2="0.889" width="0.254" layer="94"/>
<pin name="1" x="-5.08" y="0" visible="off" length="short" direction="pas" swaplevel="1"/>
<pin name="2" x="5.08" y="0" visible="off" length="short" direction="pas" swaplevel="1" rot="R180"/>
<text x="-3.81" y="1.4986" size="1.778" layer="95">&gt;NAME</text>
<text x="-3.81" y="-3.302" size="1.778" layer="96">&gt;VALUE</text>
<text x="-5.08" y="0" size="0.4064" layer="99" align="center">SpiceOrder 1</text>
<text x="5.08" y="0" size="0.4064" layer="99" align="center">SpiceOrder 2</text>
</symbol>
</symbols>
<devicesets>
<deviceset name="R" urn="urn:adsk.eagle:component:13322/1" prefix="R" uservalue="yes" library_version="1">
<description>&lt;B&gt;RESISTOR&lt;/B&gt;, European symbol</description>
<gates>
<gate name="G$1" symbol="R" x="0" y="0"/>
</gates>
<devices>
<device name="0204/7" package="0204/7">
<connects>
<connect gate="G$1" pin="1" pad="1"/>
<connect gate="G$1" pin="2" pad="2"/>
</connects>
<package3dinstances>
<package3dinstance package3d_urn="urn:adsk.eagle:package:13274/1"/>
</package3dinstances>
<technologies>
<technology name="">
<attribute name="SPICEMODEL" value="NONE" constant="no"/>
<attribute name="SPICEPREFIX" value="R" constant="no"/>
</technology>
</technologies>
</device>
<device name="0207/10" package="0207/10">
<connects>
<connect gate="G$1" pin="1" pad="1"/>
<connect gate="G$1" pin="2" pad="2"/>
</connects>
<package3dinstances>
<package3dinstance package3d_urn="urn:adsk.eagle:package:13275/1"/>
</package3dinstances>
<technologies>
<technology name="">
<attribute name="SPICEMODEL" value="NONE" constant="no"/>
<attribute name="SPICEPREFIX" value="R" constant="no"/>
</technology>
</technologies>
</device>
<device name="R0201" package="R0201">
<connects>
<connect gate="G$1" pin="1" pad="1"/>
<connect gate="G$1" pin="2" pad="2"/>
</connects>
<package3dinstances>
<package3dinstance package3d_urn="urn:adsk.eagle:package:13294/1"/>
</package3dinstances>
<technologies>
<technology name="">
<attribute name="SPICEMODEL" value="NONE" constant="no"/>
<attribute name="SPICEPREFIX" value="R" constant="no"/>
</technology>
</technologies>
</device>
<device name="R0402" package="R0402">
<connects>
<connect gate="G$1" pin="1" pad="1"/>
<connect gate="G$1" pin="2" pad="2"/>
</connects>
<package3dinstances>
<package3dinstance package3d_urn="urn:adsk.eagle:package:13296/1"/>
</package3dinstances>
<technologies>
<technology name="">
<attribute name="SPICEMODEL" value="NONE" constant="no"/>
<attribute name="SPICEPREFIX" value="R" constant="no"/>
</technology>
</technologies>
</device>
<device name="R0603" package="R0603">
<connects>
<connect gate="G$1" pin="1" pad="1"/>
<connect gate="G$1" pin="2" pad="2"/>
</connects>
<package3dinstances>
<package3dinstance package3d_urn="urn:adsk.eagle:package:13302/1"/>
</package3dinstances>
<technologies>
<technology name="">
<attribute name="SPICEMODEL" value="NONE" constant="no"/>
<attribute name="SPICEPREFIX" value="R" constant="no"/>
</technology>
</technologies>
</device>
<device name="" package="R0805">
<connects>
<connect gate="G$1" pin="1" pad="1"/>
<connect gate="G$1" pin="2" pad="2"/>
</connects>
<package3dinstances>
<package3dinstance package3d_urn="urn:adsk.eagle:package:13300/1"/>
</package3dinstances>
<technologies>
<technology name="">
<attribute name="SPICEMODEL" value="NONE" constant="no"/>
<attribute name="SPICEPREFIX" value="R" constant="no"/>
</technology>
</technologies>
</device>
<device name="R1005" package="R1005">
<connects>
<connect gate="G$1" pin="1" pad="1"/>
<connect gate="G$1" pin="2" pad="2"/>
</connects>
<package3dinstances>
<package3dinstance package3d_urn="urn:adsk.eagle:package:13297/1"/>
</package3dinstances>
<technologies>
<technology name="">
<attribute name="SPICEMODEL" value="NONE" constant="no"/>
<attribute name="SPICEPREFIX" value="R" constant="no"/>
</technology>
</technologies>
</device>
<device name="R1206" package="R1206">
<connects>
<connect gate="G$1" pin="1" pad="1"/>
<connect gate="G$1" pin="2" pad="2"/>
</connects>
<package3dinstances>
<package3dinstance package3d_urn="urn:adsk.eagle:package:13301/1"/>
</package3dinstances>
<technologies>
<technology name="">
<attribute name="SPICEMODEL" value="NONE" constant="no"/>
<attribute name="SPICEPREFIX" value="R" constant="no"/>
</technology>
</technologies>
</device>
<device name="R1210" package="R1210">
<connects>
<connect gate="G$1" pin="1" pad="1"/>
<connect gate="G$1" pin="2" pad="2"/>
</connects>
<package3dinstances>
<package3dinstance package3d_urn="urn:adsk.eagle:package:13299/1"/>
</package3dinstances>
<technologies>
<technology name="">
<attribute name="SPICEMODEL" value="NONE" constant="no"/>
<attribute name="SPICEPREFIX" value="R" constant="no"/>
</technology>
</technologies>
</device>
<device name="R1218" package="R1218">
<connects>
<connect gate="G$1" pin="1" pad="1"/>
<connect gate="G$1" pin="2" pad="2"/>
</connects>
<package3dinstances>
<package3dinstance package3d_urn="urn:adsk.eagle:package:13303/1"/>
</package3dinstances>
<technologies>
<technology name="">
<attribute name="SPICEMODEL" value="NONE" constant="no"/>
<attribute name="SPICEPREFIX" value="R" constant="no"/>
</technology>
</technologies>
</device>
<device name="R2010" package="R2010">
<connects>
<connect gate="G$1" pin="1" pad="1"/>
<connect gate="G$1" pin="2" pad="2"/>
</connects>
<package3dinstances>
<package3dinstance package3d_urn="urn:adsk.eagle:package:13309/1"/>
</package3dinstances>
<technologies>
<technology name="">
<attribute name="SPICEMODEL" value="NONE" constant="no"/>
<attribute name="SPICEPREFIX" value="R" constant="no"/>
</technology>
</technologies>
</device>
<device name="R2012" package="R2012">
<connects>
<connect gate="G$1" pin="1" pad="1"/>
<connect gate="G$1" pin="2" pad="2"/>
</connects>
<package3dinstances>
<package3dinstance package3d_urn="urn:adsk.eagle:package:13306/1"/>
</package3dinstances>
<technologies>
<technology name="">
<attribute name="SPICEMODEL" value="NONE" constant="no"/>
<attribute name="SPICEPREFIX" value="R" constant="no"/>
</technology>
</technologies>
</device>
<device name="R2512" package="R2512">
<connects>
<connect gate="G$1" pin="1" pad="1"/>
<connect gate="G$1" pin="2" pad="2"/>
</connects>
<package3dinstances>
<package3dinstance package3d_urn="urn:adsk.eagle:package:13304/1"/>
</package3dinstances>
<technologies>
<technology name="">
<attribute name="SPICEMODEL" value="NONE" constant="no"/>
<attribute name="SPICEPREFIX" value="R" constant="no"/>
</technology>
</technologies>
</device>
<device name="R3216" package="R3216">
<connects>
<connect gate="G$1" pin="1" pad="1"/>
<connect gate="G$1" pin="2" pad="2"/>
</connects>
<package3dinstances>
<package3dinstance package3d_urn="urn:adsk.eagle:package:13305/1"/>
</package3dinstances>
<technologies>
<technology name="">
<attribute name="SPICEMODEL" value="NONE" constant="no"/>
<attribute name="SPICEPREFIX" value="R" constant="no"/>
</technology>
</technologies>
</device>
<device name="R3225" package="R3225">
<connects>
<connect gate="G$1" pin="1" pad="1"/>
<connect gate="G$1" pin="2" pad="2"/>
</connects>
<package3dinstances>
<package3dinstance package3d_urn="urn:adsk.eagle:package:13311/1"/>
</package3dinstances>
<technologies>
<technology name="">
<attribute name="SPICEMODEL" value="NONE" constant="no"/>
<attribute name="SPICEPREFIX" value="R" constant="no"/>
</technology>
</technologies>
</device>
<device name="R4527" package="R4527">
<connects>
<connect gate="G$1" pin="1" pad="1"/>
<connect gate="G$1" pin="2" pad="2"/>
</connects>
<package3dinstances>
<package3dinstance package3d_urn="urn:adsk.eagle:package:13310/1"/>
</package3dinstances>
<technologies>
<technology name="">
<attribute name="SPICEMODEL" value="NONE" constant="no"/>
<attribute name="SPICEPREFIX" value="R" constant="no"/>
</technology>
</technologies>
</device>
<device name="R5025" package="R5025">
<connects>
<connect gate="G$1" pin="1" pad="1"/>
<connect gate="G$1" pin="2" pad="2"/>
</connects>
<package3dinstances>
<package3dinstance package3d_urn="urn:adsk.eagle:package:13308/1"/>
</package3dinstances>
<technologies>
<technology name="">
<attribute name="SPICEMODEL" value="NONE" constant="no"/>
<attribute name="SPICEPREFIX" value="R" constant="no"/>
</technology>
</technologies>
</device>
<device name="R6332" package="R6332">
<connects>
<connect gate="G$1" pin="1" pad="1"/>
<connect gate="G$1" pin="2" pad="2"/>
</connects>
<package3dinstances>
<package3dinstance package3d_urn="urn:adsk.eagle:package:13307/1"/>
</package3dinstances>
<technologies>
<technology name="">
<attribute name="SPICEMODEL" value="NONE" constant="no"/>
<attribute name="SPICEPREFIX" value="R" constant="no"/>
</technology>
</technologies>
</device>
</devices>
</deviceset>
</devicesets>
</library>
<library name="jumper" urn="urn:adsk.eagle:library:252">
<description>&lt;b&gt;Jumpers&lt;/b&gt;&lt;p&gt;
&lt;author&gt;Created by librarian@cadsoft.de&lt;/author&gt;</description>
<packages>
<package name="JP1" urn="urn:adsk.eagle:footprint:15398/1" library_version="1">
<description>&lt;b&gt;JUMPER&lt;/b&gt;</description>
<wire x1="-1.016" y1="0" x2="-1.27" y2="0.254" width="0.1524" layer="21"/>
<wire x1="-1.016" y1="0" x2="-1.27" y2="-0.254" width="0.1524" layer="21"/>
<wire x1="1.016" y1="0" x2="1.27" y2="0.254" width="0.1524" layer="21"/>
<wire x1="1.016" y1="0" x2="1.27" y2="-0.254" width="0.1524" layer="21"/>
<wire x1="1.27" y1="-0.254" x2="1.27" y2="-2.286" width="0.1524" layer="21"/>
<wire x1="1.016" y1="-2.54" x2="1.27" y2="-2.286" width="0.1524" layer="21"/>
<wire x1="1.27" y1="2.286" x2="1.016" y2="2.54" width="0.1524" layer="21"/>
<wire x1="1.27" y1="2.286" x2="1.27" y2="0.254" width="0.1524" layer="21"/>
<wire x1="1.016" y1="2.54" x2="-1.016" y2="2.54" width="0.1524" layer="21"/>
<wire x1="-1.27" y1="2.286" x2="-1.016" y2="2.54" width="0.1524" layer="21"/>
<wire x1="-1.27" y1="2.286" x2="-1.27" y2="0.254" width="0.1524" layer="21"/>
<wire x1="-1.27" y1="-0.254" x2="-1.27" y2="-2.286" width="0.1524" layer="21"/>
<wire x1="-1.016" y1="-2.54" x2="-1.27" y2="-2.286" width="0.1524" layer="21"/>
<wire x1="-1.016" y1="-2.54" x2="1.016" y2="-2.54" width="0.1524" layer="21"/>
<pad name="1" x="0" y="-1.27" drill="0.9144" shape="long"/>
<pad name="2" x="0" y="1.27" drill="0.9144" shape="long"/>
<text x="-1.651" y="-2.54" size="1.27" layer="25" ratio="10" rot="R90">&gt;NAME</text>
<text x="2.921" y="-2.54" size="1.27" layer="27" ratio="10" rot="R90">&gt;VALUE</text>
<rectangle x1="-0.3048" y1="0.9652" x2="0.3048" y2="1.5748" layer="51"/>
<rectangle x1="-0.3048" y1="-1.5748" x2="0.3048" y2="-0.9652" layer="51"/>
</package>
</packages>
<packages3d>
<package3d name="JP1" urn="urn:adsk.eagle:package:15455/1" type="box" library_version="1">
<description>JUMPER</description>
<packageinstances>
<packageinstance name="JP1"/>
</packageinstances>
</package3d>
</packages3d>
<symbols>
<symbol name="JP2E" urn="urn:adsk.eagle:symbol:15391/1" library_version="1">
<wire x1="0" y1="0" x2="0" y2="1.27" width="0.1524" layer="94"/>
<wire x1="0" y1="2.54" x2="0" y2="1.27" width="0.4064" layer="94"/>
<wire x1="2.54" y1="0" x2="2.54" y2="1.27" width="0.1524" layer="94"/>
<wire x1="2.54" y1="2.54" x2="2.54" y2="1.27" width="0.4064" layer="94"/>
<wire x1="-0.635" y1="0" x2="3.175" y2="0" width="0.4064" layer="94"/>
<wire x1="3.175" y1="0" x2="3.175" y2="0.635" width="0.4064" layer="94"/>
<wire x1="3.175" y1="0.635" x2="-0.635" y2="0.635" width="0.4064" layer="94"/>
<wire x1="-0.635" y1="0.635" x2="-0.635" y2="0" width="0.4064" layer="94"/>
<text x="-1.27" y="0" size="1.778" layer="95" rot="R90">&gt;NAME</text>
<text x="5.715" y="0" size="1.778" layer="96" rot="R90">&gt;VALUE</text>
<pin name="1" x="0" y="-2.54" visible="pad" length="short" direction="pas" rot="R90"/>
<pin name="2" x="2.54" y="-2.54" visible="pad" length="short" direction="pas" rot="R90"/>
</symbol>
</symbols>
<devicesets>
<deviceset name="JP1E" urn="urn:adsk.eagle:component:15487/1" prefix="JP" uservalue="yes" library_version="1">
<description>&lt;b&gt;JUMPER&lt;/b&gt;</description>
<gates>
<gate name="A" symbol="JP2E" x="2.54" y="0"/>
</gates>
<devices>
<device name="" package="JP1">
<connects>
<connect gate="A" pin="1" pad="1"/>
<connect gate="A" pin="2" pad="2"/>
</connects>
<package3dinstances>
<package3dinstance package3d_urn="urn:adsk.eagle:package:15455/1"/>
</package3dinstances>
<technologies>
<technology name=""/>
</technologies>
</device>
</devices>
</deviceset>
</devicesets>
</library>
<library name="trafo" urn="urn:adsk.eagle:library:394">
<description>&lt;b&gt;Transformers&lt;/b&gt;&lt;p&gt;
Based on the following previous libraries:
&lt;ul&gt;
&lt;li&gt;trafo-b.lbr: transformers from BLOCK
&lt;li&gt;trafo-e.lbr: transformers from ERA
&lt;li&gt;trafo-r.lbr: ring cores
&lt;/ul&gt;
&lt;author&gt;Created by librarian@cadsoft.de&lt;/author&gt;</description>
<packages>
<package name="EE20-1" urn="urn:adsk.eagle:footprint:28246/1" library_version="1">
<description>&lt;b&gt;TRANSFORMER&lt;/b&gt;&lt;p&gt;
1 primary winding, 1 secondary winding</description>
<wire x1="-4.445" y1="3.81" x2="-4.445" y2="-3.81" width="0.254" layer="21"/>
<wire x1="-2.54" y1="3.81" x2="-2.54" y2="-3.81" width="0.254" layer="21"/>
<wire x1="-2.54" y1="-3.81" x2="-4.445" y2="-3.81" width="0.254" layer="21"/>
<wire x1="-1.27" y1="3.81" x2="-1.27" y2="-3.81" width="0.254" layer="21"/>
<wire x1="-4.445" y1="3.81" x2="-2.54" y2="3.81" width="0.254" layer="21"/>
<wire x1="-6.35" y1="3.81" x2="-4.445" y2="3.81" width="0.254" layer="21"/>
<wire x1="-4.445" y1="-3.81" x2="-6.35" y2="-3.81" width="0.254" layer="21"/>
<wire x1="-11.43" y1="-10.287" x2="-10.16" y2="-11.557" width="0.254" layer="21" curve="90"/>
<wire x1="10.16" y1="11.557" x2="11.43" y2="10.287" width="0.254" layer="21" curve="-90"/>
<wire x1="10.16" y1="-11.557" x2="11.43" y2="-10.287" width="0.254" layer="21" curve="90"/>
<wire x1="11.43" y1="10.287" x2="11.43" y2="-10.287" width="0.254" layer="21"/>
<wire x1="-11.43" y1="10.287" x2="-10.16" y2="11.557" width="0.254" layer="21" curve="-90"/>
<wire x1="-11.43" y1="-10.287" x2="-11.43" y2="10.287" width="0.254" layer="21"/>
<wire x1="10.16" y1="-7.62" x2="10.795" y2="-6.985" width="0.254" layer="21" curve="90"/>
<wire x1="-10.795" y1="-6.985" x2="-10.16" y2="-7.62" width="0.254" layer="21" curve="90"/>
<wire x1="10.16" y1="7.62" x2="10.795" y2="6.985" width="0.254" layer="21" curve="-90"/>
<wire x1="-10.795" y1="6.985" x2="-10.16" y2="7.62" width="0.254" layer="21" curve="-90"/>
<wire x1="10.16" y1="-11.557" x2="-10.16" y2="-11.557" width="0.254" layer="21"/>
<wire x1="-10.16" y1="11.557" x2="10.16" y2="11.557" width="0.254" layer="21"/>
<wire x1="-9.525" y1="-7.62" x2="-5.461" y2="-7.62" width="0.254" layer="51"/>
<wire x1="-9.525" y1="7.62" x2="-5.461" y2="7.62" width="0.254" layer="51"/>
<wire x1="-10.795" y1="6.985" x2="-10.795" y2="-6.985" width="0.254" layer="21"/>
<wire x1="9.525" y1="7.62" x2="5.461" y2="7.62" width="0.254" layer="51"/>
<wire x1="10.795" y1="-6.985" x2="10.795" y2="6.985" width="0.254" layer="21"/>
<wire x1="9.525" y1="-7.62" x2="5.461" y2="-7.62" width="0.254" layer="51"/>
<wire x1="5.461" y1="7.62" x2="-5.461" y2="7.62" width="0.254" layer="21"/>
<wire x1="5.461" y1="-7.62" x2="-5.461" y2="-7.62" width="0.254" layer="21"/>
<wire x1="0" y1="2.54" x2="0" y2="-2.54" width="0.254" layer="21"/>
<wire x1="0" y1="-2.54" x2="1.905" y2="-2.54" width="0.254" layer="21"/>
<wire x1="0" y1="2.54" x2="1.905" y2="2.54" width="0.254" layer="21"/>
<wire x1="1.905" y1="-2.54" x2="1.905" y2="2.54" width="0.254" layer="21"/>
<wire x1="1.905" y1="-2.54" x2="3.81" y2="-2.54" width="0.254" layer="21"/>
<wire x1="1.905" y1="2.54" x2="3.81" y2="2.54" width="0.254" layer="21"/>
<wire x1="-10.16" y1="-7.62" x2="-9.525" y2="-7.62" width="0.254" layer="21"/>
<wire x1="10.16" y1="-7.62" x2="9.525" y2="-7.62" width="0.254" layer="21"/>
<wire x1="10.16" y1="7.62" x2="9.525" y2="7.62" width="0.254" layer="21"/>
<wire x1="-10.16" y1="7.62" x2="-9.525" y2="7.62" width="0.254" layer="21"/>
<circle x="-5.715" y="-2.921" radius="0.254" width="0.254" layer="21"/>
<circle x="-6.985" y="3.81" radius="0.635" width="0.254" layer="21"/>
<circle x="-6.985" y="-3.81" radius="0.635" width="0.254" layer="21"/>
<circle x="2.667" y="-1.778" radius="0.254" width="0.254" layer="21"/>
<circle x="4.445" y="-2.54" radius="0.635" width="0.254" layer="21"/>
<circle x="4.445" y="2.54" radius="0.635" width="0.254" layer="21"/>
<pad name="1" x="-7.493" y="7.493" drill="1.016" shape="long" rot="R90"/>
<pad name="4" x="-7.493" y="-7.493" drill="1.016" shape="long" rot="R90"/>
<pad name="5" x="7.493" y="-7.493" drill="1.016" shape="long"/>
<pad name="6" x="7.493" y="-2.5146" drill="1.016" shape="long"/>
<pad name="7" x="7.493" y="2.5146" drill="1.016" shape="long"/>
<pad name="8" x="7.493" y="7.493" drill="1.016" shape="long"/>
<text x="-10.16" y="12.065" size="1.778" layer="25" ratio="10">&gt;NAME</text>
<text x="-1.27" y="12.065" size="1.778" layer="27" ratio="10">&gt;VALUE</text>
<text x="-8.001" y="-0.889" size="1.778" layer="21" ratio="10">P1</text>
<text x="-4.699" y="-10.922" size="1.778" layer="21" ratio="10">EE20</text>
<text x="2.159" y="3.81" size="1.778" layer="21" ratio="10">S1</text>
<text x="-10.16" y="8.89" size="1.27" layer="21" ratio="10">1</text>
<text x="-10.16" y="-10.16" size="1.27" layer="21" ratio="10">4</text>
<text x="9.525" y="-10.16" size="1.27" layer="21" ratio="10">5</text>
<text x="9.525" y="8.89" size="1.27" layer="21" ratio="10">8</text>
<rectangle x1="-4.445" y1="-3.81" x2="-2.54" y2="3.81" layer="21"/>
<rectangle x1="0" y1="-2.54" x2="1.905" y2="2.54" layer="21"/>
</package>
</packages>
<packages3d>
<package3d name="EE20-1" urn="urn:adsk.eagle:package:28342/1" type="box" library_version="1">
<description>TRANSFORMER
1 primary winding, 1 secondary winding</description>
<packageinstances>
<packageinstance name="EE20-1"/>
</packageinstances>
</package3d>
</packages3d>
<symbols>
<symbol name="T1P1S" urn="urn:adsk.eagle:symbol:28193/1" library_version="1">
<wire x1="1.27" y1="5.207" x2="1.27" y2="-7.747" width="0.254" layer="94"/>
<circle x="-2.921" y="-8.636" radius="0.127" width="0.3048" layer="94"/>
<circle x="5.461" y="-5.842" radius="0.127" width="0.3048" layer="94"/>
<text x="-2.54" y="7.366" size="1.778" layer="95">&gt;NAME</text>
<text x="-2.54" y="-10.795" size="1.778" layer="96">&gt;VALUE</text>
<text x="-3.175" y="-2.54" size="1.27" layer="94" rot="R90">PRI</text>
<text x="6.985" y="-2.54" size="1.27" layer="94" rot="R90">SEC</text>
<rectangle x1="-2.286" y1="-7.62" x2="0.254" y2="5.08" layer="94"/>
<rectangle x1="2.286" y1="-5.08" x2="4.826" y2="2.54" layer="94"/>
<pin name="P1" x="-5.08" y="5.08" visible="pad" length="middle" direction="pas" swaplevel="1"/>
<pin name="P2" x="-5.08" y="-7.62" visible="pad" length="middle" direction="pas" swaplevel="1"/>
<pin name="S3" x="7.62" y="-5.08" visible="pad" length="middle" direction="pas" swaplevel="2" rot="R180"/>
<pin name="S4" x="7.62" y="2.54" visible="pad" length="middle" direction="pas" swaplevel="2" rot="R180"/>
</symbol>
</symbols>
<devicesets>
<deviceset name="EE20-1" urn="urn:adsk.eagle:component:28420/1" prefix="TR" uservalue="yes" library_version="1">
<description>&lt;b&gt;TRANSFORMER&lt;/b&gt;&lt;p&gt;
1 primary winding, 1 secondary winding&lt;p&gt;
ERA</description>
<gates>
<gate name="1" symbol="T1P1S" x="0" y="0"/>
</gates>
<devices>
<device name="" package="EE20-1">
<connects>
<connect gate="1" pin="P1" pad="1"/>
<connect gate="1" pin="P2" pad="4"/>
<connect gate="1" pin="S3" pad="6"/>
<connect gate="1" pin="S4" pad="7"/>
</connects>
<package3dinstances>
<package3dinstance package3d_urn="urn:adsk.eagle:package:28342/1"/>
</package3dinstances>
<technologies>
<technology name=""/>
</technologies>
</device>
</devices>
</deviceset>
</devicesets>
</library>
</libraries>
<attributes>
</attributes>
<variantdefs>
</variantdefs>
<classes>
<class number="0" name="default" width="0" drill="0">
</class>
</classes>
<parts>
<part name="C1" library="docu-dummy" library_urn="urn:adsk.eagle:library:215" deviceset="ELKO" device=""/>
<part name="R1" library="eagle-ltspice" library_urn="urn:adsk.eagle:library:217" deviceset="R" device="" package3d_urn="urn:adsk.eagle:package:13300/1"/>
<part name="D2" library="docu-dummy" library_urn="urn:adsk.eagle:library:215" deviceset="DIODE" device=""/>
<part name="D3" library="docu-dummy" library_urn="urn:adsk.eagle:library:215" deviceset="DIODE" device=""/>
<part name="D4" library="docu-dummy" library_urn="urn:adsk.eagle:library:215" deviceset="DIODE" device=""/>
<part name="D5" library="docu-dummy" library_urn="urn:adsk.eagle:library:215" deviceset="DIODE" device=""/>
<part name="JP1" library="jumper" library_urn="urn:adsk.eagle:library:252" deviceset="JP1E" device="" package3d_urn="urn:adsk.eagle:package:15455/1"/>
<part name="TR1" library="trafo" library_urn="urn:adsk.eagle:library:394" deviceset="EE20-1" device="" package3d_urn="urn:adsk.eagle:package:28342/1"/>
</parts>
<sheets>
<sheet>
<plain>
<circle x="109.22" y="58.42" radius="2.54" width="0.1524" layer="91"/>
</plain>
<instances>
<instance part="C1" gate="G$1" x="63.5" y="58.42"/>
<instance part="R1" gate="G$1" x="81.28" y="58.42" rot="R90"/>
<instance part="D2" gate="G$1" x="33.02" y="71.12" rot="R90"/>
<instance part="D3" gate="G$1" x="33.02" y="60.96" rot="R270"/>
<instance part="D4" gate="G$1" x="48.26" y="71.12" rot="R270"/>
<instance part="D5" gate="G$1" x="48.26" y="60.96" rot="R90"/>
<instance part="JP1" gate="A" x="66.04" y="63.5" rot="R270"/>
<instance part="TR1" gate="1" x="10.16" y="66.04"/>
</instances>
<busses>
</busses>
<nets>
<net name="N$4" class="0">
<segment>
<wire x1="22.86" y1="71.12" x2="22.86" y2="76.2" width="0.1524" layer="91"/>
<wire x1="22.86" y1="76.2" x2="33.02" y2="76.2" width="0.1524" layer="91"/>
<wire x1="33.02" y1="76.2" x2="48.26" y2="76.2" width="0.1524" layer="91"/>
<wire x1="48.26" y1="76.2" x2="48.26" y2="73.66" width="0.1524" layer="91"/>
<junction x="33.02" y="76.2"/>
<wire x1="33.02" y1="71.12" x2="33.02" y2="76.2" width="0.1524" layer="91"/>
<pinref part="TR1" gate="1" pin="S4"/>
<wire x1="17.78" y1="68.58" x2="22.86" y2="68.58" width="0.1524" layer="91"/>
<wire x1="22.86" y1="68.58" x2="22.86" y2="71.12" width="0.1524" layer="91"/>
</segment>
</net>
<net name="N$5" class="0">
<segment>
<wire x1="22.86" y1="60.96" x2="22.86" y2="55.88" width="0.1524" layer="91"/>
<wire x1="48.26" y1="55.88" x2="33.02" y2="55.88" width="0.1524" layer="91"/>
<wire x1="33.02" y1="55.88" x2="22.86" y2="55.88" width="0.1524" layer="91"/>
<junction x="33.02" y="55.88"/>
<wire x1="48.26" y1="58.42" x2="48.26" y2="55.88" width="0.1524" layer="91"/>
<wire x1="33.02" y1="60.96" x2="33.02" y2="55.88" width="0.1524" layer="91"/>
<pinref part="TR1" gate="1" pin="S3"/>
<wire x1="22.86" y1="60.96" x2="17.78" y2="60.96" width="0.1524" layer="91"/>
</segment>
</net>
<net name="N$8" class="0">
<segment>
<wire x1="33.02" y1="68.58" x2="33.02" y2="66.04" width="0.1524" layer="91"/>
<wire x1="33.02" y1="66.04" x2="33.02" y2="63.5" width="0.1524" layer="91"/>
<wire x1="33.02" y1="66.04" x2="40.64" y2="66.04" width="0.1524" layer="91"/>
<junction x="33.02" y="66.04"/>
<wire x1="40.64" y1="66.04" x2="40.64" y2="50.8" width="0.1524" layer="91"/>
<wire x1="40.64" y1="50.8" x2="63.5" y2="50.8" width="0.1524" layer="91"/>
<wire x1="63.5" y1="50.8" x2="81.28" y2="50.8" width="0.1524" layer="91"/>
<wire x1="63.5" y1="53.34" x2="63.5" y2="50.8" width="0.1524" layer="91"/>
<junction x="63.5" y="50.8"/>
<pinref part="R1" gate="G$1" pin="1"/>
<wire x1="81.28" y1="53.34" x2="81.28" y2="50.8" width="0.1524" layer="91"/>
<junction x="81.28" y="50.8"/>
<wire x1="81.28" y1="50.8" x2="96.52" y2="50.8" width="0.1524" layer="91"/>
<wire x1="96.52" y1="50.8" x2="109.22" y2="50.8" width="0.1524" layer="91"/>
<wire x1="109.22" y1="50.8" x2="109.22" y2="55.88" width="0.1524" layer="91"/>
<wire x1="96.52" y1="50.8" x2="96.52" y2="55.88" width="0.1524" layer="91"/>
<junction x="96.52" y="50.8"/>
</segment>
</net>
<net name="N$7" class="0">
<segment>
<wire x1="63.5" y1="58.42" x2="63.5" y2="60.96" width="0.1524" layer="91"/>
<pinref part="JP1" gate="A" pin="2"/>
</segment>
</net>
<net name="N$6" class="0">
<segment>
<pinref part="R1" gate="G$1" pin="2"/>
<wire x1="81.28" y1="63.5" x2="81.28" y2="66.04" width="0.1524" layer="91"/>
<wire x1="63.5" y1="66.04" x2="81.28" y2="66.04" width="0.1524" layer="91"/>
<wire x1="63.5" y1="63.5" x2="63.5" y2="66.04" width="0.1524" layer="91"/>
<junction x="63.5" y="66.04"/>
<wire x1="48.26" y1="66.04" x2="48.26" y2="68.58" width="0.1524" layer="91"/>
<wire x1="48.26" y1="66.04" x2="63.5" y2="66.04" width="0.1524" layer="91"/>
<junction x="48.26" y="66.04"/>
<wire x1="109.22" y1="66.04" x2="109.22" y2="60.96" width="0.1524" layer="91"/>
<wire x1="81.28" y1="66.04" x2="96.52" y2="66.04" width="0.1524" layer="91"/>
<junction x="81.28" y="66.04"/>
<wire x1="96.52" y1="66.04" x2="109.22" y2="66.04" width="0.1524" layer="91"/>
<wire x1="96.52" y1="66.04" x2="96.52" y2="60.96" width="0.1524" layer="91"/>
<junction x="96.52" y="66.04"/>
<wire x1="48.26" y1="60.96" x2="48.26" y2="66.04" width="0.1524" layer="91"/>
<pinref part="JP1" gate="A" pin="1"/>
</segment>
</net>
<net name="N$9" class="0">
<segment>
<wire x1="91.44" y1="55.88" x2="101.6" y2="55.88" width="0.1524" layer="91"/>
<wire x1="101.6" y1="55.88" x2="101.6" y2="60.96" width="0.1524" layer="91"/>
<wire x1="101.6" y1="60.96" x2="91.44" y2="60.96" width="0.1524" layer="91"/>
<wire x1="91.44" y1="60.96" x2="91.44" y2="55.88" width="0.1524" layer="91"/>
</segment>
</net>
<net name="N$1" class="0">
<segment>
<pinref part="TR1" gate="1" pin="P1"/>
<wire x1="5.08" y1="71.12" x2="-2.54" y2="71.12" width="0.1524" layer="91"/>
</segment>
</net>
<net name="N$2" class="0">
<segment>
<pinref part="TR1" gate="1" pin="P2"/>
<wire x1="5.08" y1="58.42" x2="-2.54" y2="58.42" width="0.1524" layer="91"/>
</segment>
</net>
</nets>
</sheet>
</sheets>
</schematic>
</drawing>
<compatibility>
<note version="8.2" severity="warning">
Since Version 8.2, EAGLE supports online libraries. The ids
of those online libraries will not be understood (or retained)
with this version.
</note>
<note version="8.3" severity="warning">
Since Version 8.3, EAGLE supports URNs for individual library
assets (packages, symbols, and devices). The URNs of those assets
will not be understood (or retained) with this version.
</note>
<note version="8.3" severity="warning">
Since Version 8.3, EAGLE supports the association of 3D packages
with devices in libraries, schematics, and board files. Those 3D
packages will not be understood (or retained) with this version.
</note>
</compatibility>
</eagle>
