<?xml version="1.0" encoding="utf-8"?>
<!DOCTYPE eagle SYSTEM "eagle.dtd">
<eagle version="9.2.2">
<drawing>
<settings>
<setting alwaysvectorfont="no"/>
<setting verticaltext="up"/>
</settings>
<grid distance="1" unitdist="mm" unit="mm" style="lines" multiple="1" display="yes" altdistance="0.01" altunitdist="inch" altunit="inch"/>
<layers>
<layer number="1" name="Top" color="4" fill="1" visible="no" active="no"/>
<layer number="2" name="Route2" color="1" fill="3" visible="no" active="no"/>
<layer number="3" name="Route3" color="4" fill="3" visible="no" active="no"/>
<layer number="4" name="Route4" color="1" fill="4" visible="no" active="no"/>
<layer number="5" name="Route5" color="4" fill="4" visible="no" active="no"/>
<layer number="6" name="Route6" color="1" fill="8" visible="no" active="no"/>
<layer number="7" name="Route7" color="4" fill="8" visible="no" active="no"/>
<layer number="8" name="Route8" color="1" fill="2" visible="no" active="no"/>
<layer number="9" name="Route9" color="4" fill="2" visible="no" active="no"/>
<layer number="10" name="Route10" color="1" fill="7" visible="no" active="no"/>
<layer number="11" name="Route11" color="4" fill="7" visible="no" active="no"/>
<layer number="12" name="Route12" color="1" fill="5" visible="no" active="no"/>
<layer number="13" name="Route13" color="4" fill="5" visible="no" active="no"/>
<layer number="14" name="Route14" color="1" fill="6" visible="no" active="no"/>
<layer number="15" name="Route15" color="4" fill="6" visible="no" active="no"/>
<layer number="16" name="Bottom" color="1" fill="1" visible="no" active="no"/>
<layer number="17" name="Pads" color="2" fill="1" visible="no" active="no"/>
<layer number="18" name="Vias" color="2" fill="1" visible="no" active="no"/>
<layer number="19" name="Unrouted" color="6" fill="1" visible="no" active="no"/>
<layer number="20" name="Dimension" color="15" fill="1" visible="no" active="no"/>
<layer number="21" name="tPlace" color="7" fill="1" visible="no" active="no"/>
<layer number="22" name="bPlace" color="7" fill="1" visible="no" active="no"/>
<layer number="23" name="tOrigins" color="15" fill="1" visible="no" active="no"/>
<layer number="24" name="bOrigins" color="15" fill="1" visible="no" active="no"/>
<layer number="25" name="tNames" color="7" fill="1" visible="no" active="no"/>
<layer number="26" name="bNames" color="7" fill="1" visible="no" active="no"/>
<layer number="27" name="tValues" color="7" fill="1" visible="no" active="no"/>
<layer number="28" name="bValues" color="7" fill="1" visible="no" active="no"/>
<layer number="29" name="tStop" color="7" fill="3" visible="no" active="no"/>
<layer number="30" name="bStop" color="7" fill="6" visible="no" active="no"/>
<layer number="31" name="tCream" color="7" fill="4" visible="no" active="no"/>
<layer number="32" name="bCream" color="7" fill="5" visible="no" active="no"/>
<layer number="33" name="tFinish" color="6" fill="3" visible="no" active="no"/>
<layer number="34" name="bFinish" color="6" fill="6" visible="no" active="no"/>
<layer number="35" name="tGlue" color="7" fill="4" visible="no" active="no"/>
<layer number="36" name="bGlue" color="7" fill="5" visible="no" active="no"/>
<layer number="37" name="tTest" color="7" fill="1" visible="no" active="no"/>
<layer number="38" name="bTest" color="7" fill="1" visible="no" active="no"/>
<layer number="39" name="tKeepout" color="4" fill="11" visible="no" active="no"/>
<layer number="40" name="bKeepout" color="1" fill="11" visible="no" active="no"/>
<layer number="41" name="tRestrict" color="4" fill="10" visible="no" active="no"/>
<layer number="42" name="bRestrict" color="1" fill="10" visible="no" active="no"/>
<layer number="43" name="vRestrict" color="2" fill="10" visible="no" active="no"/>
<layer number="44" name="Drills" color="7" fill="1" visible="no" active="no"/>
<layer number="45" name="Holes" color="7" fill="1" visible="no" active="no"/>
<layer number="46" name="Milling" color="3" fill="1" visible="no" active="no"/>
<layer number="47" name="Measures" color="7" fill="1" visible="no" active="no"/>
<layer number="48" name="Document" color="7" fill="1" visible="no" active="no"/>
<layer number="49" name="Reference" color="7" fill="1" visible="no" active="no"/>
<layer number="51" name="tDocu" color="7" fill="1" visible="no" active="no"/>
<layer number="52" name="bDocu" color="7" fill="1" visible="no" active="no"/>
<layer number="88" name="SimResults" color="9" fill="1" visible="yes" active="yes"/>
<layer number="89" name="SimProbes" color="9" fill="1" visible="yes" active="yes"/>
<layer number="90" name="Modules" color="5" fill="1" visible="yes" active="yes"/>
<layer number="91" name="Nets" color="2" fill="1" visible="yes" active="yes"/>
<layer number="92" name="Busses" color="1" fill="1" visible="yes" active="yes"/>
<layer number="93" name="Pins" color="2" fill="1" visible="no" active="yes"/>
<layer number="94" name="Symbols" color="4" fill="1" visible="yes" active="yes"/>
<layer number="95" name="Names" color="7" fill="1" visible="yes" active="yes"/>
<layer number="96" name="Values" color="7" fill="1" visible="yes" active="yes"/>
<layer number="97" name="Info" color="7" fill="1" visible="yes" active="yes"/>
<layer number="98" name="Guide" color="6" fill="1" visible="yes" active="yes"/>
<layer number="99" name="SpiceOrder" color="7" fill="1" visible="yes" active="yes"/>
</layers>
<schematic xreflabel="%F%N/%S.%C%R" xrefpart="/%S.%C%R">
<libraries>
<library name="con-wago-500" urn="urn:adsk.eagle:library:195">
<description>&lt;b&gt;Wago Screw Clamps&lt;/b&gt;&lt;p&gt;
Grid 5.00 mm&lt;p&gt;
&lt;author&gt;Created by librarian@cadsoft.de&lt;/author&gt;</description>
<packages>
<package name="W237-112" urn="urn:adsk.eagle:footprint:10674/1" library_version="1">
<description>&lt;b&gt;WAGO SCREW CLAMP&lt;/b&gt;</description>
<wire x1="1.488" y1="-2.261" x2="3.469" y2="-0.254" width="0.254" layer="51"/>
<wire x1="-4.989" y1="-5.461" x2="4.993" y2="-5.461" width="0.1524" layer="21"/>
<wire x1="4.993" y1="3.734" x2="-4.989" y2="3.734" width="0.1524" layer="21"/>
<wire x1="-4.989" y1="-5.461" x2="-4.989" y2="-3.073" width="0.1524" layer="21"/>
<wire x1="-4.989" y1="-3.073" x2="-4.989" y2="3.734" width="0.1524" layer="21"/>
<wire x1="4.993" y1="3.734" x2="4.993" y2="-3.073" width="0.1524" layer="21"/>
<wire x1="4.993" y1="-3.073" x2="4.993" y2="-5.461" width="0.1524" layer="21"/>
<wire x1="-4.989" y1="-3.073" x2="1.615" y2="-3.073" width="0.1524" layer="21"/>
<wire x1="1.615" y1="-3.073" x2="3.393" y2="-3.073" width="0.1524" layer="51"/>
<wire x1="3.393" y1="-3.073" x2="4.993" y2="-3.073" width="0.1524" layer="21"/>
<circle x="-2.5" y="-1.27" radius="1.4986" width="0.1524" layer="21"/>
<circle x="-2.5" y="2.2098" radius="0.508" width="0.1524" layer="21"/>
<circle x="2.5038" y="-1.27" radius="1.4986" width="0.1524" layer="51"/>
<circle x="2.5038" y="2.2098" radius="0.508" width="0.1524" layer="21"/>
<pad name="1" x="2.5" y="-1.27" drill="1.1938" shape="long" rot="R90"/>
<text x="-5.04" y="-7.62" size="1.27" layer="27" ratio="10">&gt;VALUE</text>
<text x="-3.8462" y="-4.9784" size="1.27" layer="25" ratio="10">&gt;NAME</text>
<text x="-4.532" y="0.635" size="1.27" layer="51" ratio="10">1</text>
<text x="0.421" y="0.635" size="1.27" layer="51" ratio="10">2</text>
</package>
</packages>
<packages3d>
<package3d name="W237-112" urn="urn:adsk.eagle:package:10689/1" type="box" library_version="1">
<description>WAGO SCREW CLAMP</description>
<packageinstances>
<packageinstance name="W237-112"/>
</packageinstances>
</package3d>
</packages3d>
<symbols>
<symbol name="KL+V" urn="urn:adsk.eagle:symbol:10673/1" library_version="1">
<circle x="1.27" y="0" radius="1.27" width="0.254" layer="94"/>
<text x="-2.54" y="-3.683" size="1.778" layer="96">&gt;VALUE</text>
<text x="0" y="0.889" size="1.778" layer="95" rot="R180">&gt;NAME</text>
<pin name="KL" x="5.08" y="0" visible="off" length="short" direction="pas" rot="R180"/>
</symbol>
</symbols>
<devicesets>
<deviceset name="W237-112" urn="urn:adsk.eagle:component:10699/1" prefix="X" uservalue="yes" library_version="1">
<description>&lt;b&gt;WAGO SCREW CLAMP&lt;/b&gt;</description>
<gates>
<gate name="-1" symbol="KL+V" x="0" y="0"/>
</gates>
<devices>
<device name="" package="W237-112">
<connects>
<connect gate="-1" pin="KL" pad="1"/>
</connects>
<package3dinstances>
<package3dinstance package3d_urn="urn:adsk.eagle:package:10689/1"/>
</package3dinstances>
<technologies>
<technology name="">
<attribute name="MF" value="" constant="no"/>
<attribute name="MPN" value="237-112" constant="no"/>
<attribute name="OC_FARNELL" value="unknown" constant="no"/>
<attribute name="OC_NEWARK" value="76R2974" constant="no"/>
</technology>
</technologies>
</device>
</devices>
</deviceset>
</devicesets>
</library>
<library name="ngspice-simulation" urn="urn:adsk.eagle:library:527439">
<description>SPICE compatible library parts</description>
<packages>
</packages>
<symbols>
<symbol name="L" urn="urn:adsk.eagle:symbol:5272038/1" library_version="16">
<description>INDUCTOR</description>
<pin name="1" x="-5.08" y="0" visible="off" length="short" direction="pas" swaplevel="1"/>
<pin name="2" x="7.62" y="0" visible="off" length="short" direction="pas" swaplevel="1" rot="R180"/>
<text x="-2.54" y="2.54" size="1.778" layer="95">&gt;NAME</text>
<text x="-2.54" y="-5.08" size="1.778" layer="97">&gt;SPICEMODEL</text>
<text x="-2.54" y="-2.54" size="1.778" layer="96">&gt;VALUE</text>
<text x="-2.54" y="-7.62" size="1.778" layer="97">&gt;SPICEEXTRA</text>
<wire x1="-2.54" y1="0" x2="0" y2="0" width="0.254" layer="94" curve="-180"/>
<wire x1="0" y1="0" x2="2.54" y2="0" width="0.254" layer="94" curve="-180"/>
<wire x1="2.54" y1="0" x2="5.08" y2="0" width="0.254" layer="94" curve="-180"/>
</symbol>
</symbols>
<devicesets>
<deviceset name="L" urn="urn:adsk.eagle:component:5272052/1" prefix="L" uservalue="yes" library_version="16">
<description>INDUCTOR</description>
<gates>
<gate name="G$1" symbol="L" x="0" y="0"/>
</gates>
<devices>
<device name="">
<technologies>
<technology name="">
<attribute name="_EXTERNAL_" value="" constant="no"/>
</technology>
</technologies>
</device>
</devices>
<spice>
<pinmapping spiceprefix="L">
<pinmap gate="G$1" pin="1" pinorder="1"/>
<pinmap gate="G$1" pin="2" pinorder="2"/>
</pinmapping>
</spice>
</deviceset>
</devicesets>
</library>
<library name="fuse" urn="urn:adsk.eagle:library:233">
<description>&lt;b&gt;Fuses and Fuse Holders&lt;/b&gt;&lt;p&gt;
&lt;author&gt;Created by librarian@cadsoft.de&lt;/author&gt;</description>
<packages>
<package name="19559" urn="urn:adsk.eagle:footprint:14028/1" library_version="1">
<description>&lt;b&gt;FUSE HOLDER&lt;/b&gt;&lt;p&gt;
TR5 Fuse Holder Wickmann</description>
<wire x1="1.778" y1="-1.397" x2="2.413" y2="-2.032" width="0.1524" layer="51"/>
<wire x1="1.397" y1="-1.778" x2="2.032" y2="-2.413" width="0.1524" layer="51"/>
<wire x1="-2.032" y1="2.413" x2="-1.397" y2="1.778" width="0.1524" layer="51"/>
<wire x1="-2.413" y1="2.032" x2="-1.778" y2="1.397" width="0.1524" layer="51"/>
<wire x1="3.175" y1="-3.937" x2="2.413" y2="-3.175" width="0.1524" layer="51"/>
<wire x1="2.413" y1="-3.175" x2="3.175" y2="-2.413" width="0.1524" layer="51"/>
<wire x1="3.175" y1="-2.413" x2="3.937" y2="-3.175" width="0.1524" layer="51"/>
<wire x1="4.064" y1="-3.683" x2="3.683" y2="-4.064" width="0.1524" layer="21"/>
<wire x1="2.794" y1="-3.175" x2="3.175" y2="-2.794" width="0.1524" layer="51"/>
<wire x1="-3.175" y1="2.413" x2="-2.413" y2="3.175" width="0.1524" layer="51"/>
<wire x1="-3.175" y1="3.937" x2="-2.413" y2="3.175" width="0.1524" layer="51"/>
<wire x1="-3.937" y1="3.175" x2="-3.175" y2="2.413" width="0.1524" layer="51"/>
<wire x1="-3.175" y1="2.794" x2="-2.794" y2="3.175" width="0.1524" layer="51"/>
<wire x1="-4.064" y1="3.683" x2="-3.683" y2="4.064" width="0.1524" layer="21"/>
<wire x1="4.064" y1="-3.683" x2="3.683" y2="-3.302" width="0.1524" layer="21"/>
<wire x1="3.683" y1="-3.302" x2="3.175" y2="-2.794" width="0.1524" layer="51"/>
<wire x1="3.302" y1="-3.683" x2="3.683" y2="-4.064" width="0.1524" layer="21"/>
<wire x1="3.302" y1="-3.683" x2="2.794" y2="-3.175" width="0.1524" layer="51"/>
<wire x1="-4.064" y1="3.683" x2="-3.683" y2="3.302" width="0.1524" layer="21"/>
<wire x1="-3.683" y1="3.302" x2="-3.175" y2="2.794" width="0.1524" layer="51"/>
<wire x1="-3.683" y1="4.064" x2="-3.302" y2="3.683" width="0.1524" layer="21"/>
<wire x1="-3.302" y1="3.683" x2="-2.794" y2="3.175" width="0.1524" layer="51"/>
<circle x="0" y="0" radius="5.08" width="0.1524" layer="21"/>
<circle x="1.905" y="-1.905" radius="0.889" width="0.1524" layer="51"/>
<circle x="-1.905" y="1.905" radius="0.889" width="0.1524" layer="51"/>
<circle x="-1.905" y="1.905" radius="0.5334" width="0.1524" layer="51"/>
<circle x="1.905" y="-1.905" radius="0.5334" width="0.1524" layer="51"/>
<pad name="1" x="-2.54" y="2.54" drill="1.3208" diameter="2.54" shape="octagon"/>
<pad name="2" x="2.54" y="-2.54" drill="1.3208" diameter="2.54" shape="octagon"/>
<text x="-4.572" y="-0.889" size="1.778" layer="27" ratio="10">&gt;VALUE</text>
<text x="-3.81" y="5.334" size="1.778" layer="25" ratio="10">&gt;NAME</text>
</package>
</packages>
<packages3d>
<package3d name="19559" urn="urn:adsk.eagle:package:14056/1" type="box" library_version="1">
<description>FUSE HOLDER
TR5 Fuse Holder Wickmann</description>
<packageinstances>
<packageinstance name="19559"/>
</packageinstances>
</package3d>
</packages3d>
<symbols>
<symbol name="FUSE" urn="urn:adsk.eagle:symbol:14027/1" library_version="1">
<wire x1="-3.81" y1="-0.762" x2="3.81" y2="-0.762" width="0.254" layer="94"/>
<wire x1="3.81" y1="0.762" x2="-3.81" y2="0.762" width="0.254" layer="94"/>
<wire x1="3.81" y1="-0.762" x2="3.81" y2="0.762" width="0.254" layer="94"/>
<wire x1="-3.81" y1="0.762" x2="-3.81" y2="-0.762" width="0.254" layer="94"/>
<wire x1="-2.54" y1="0" x2="2.54" y2="0" width="0.1524" layer="94"/>
<text x="-3.81" y="1.397" size="1.778" layer="95">&gt;NAME</text>
<text x="-3.81" y="-2.921" size="1.778" layer="96">&gt;VALUE</text>
<pin name="2" x="5.08" y="0" visible="off" length="short" direction="pas" swaplevel="1" rot="R180"/>
<pin name="1" x="-5.08" y="0" visible="off" length="short" direction="pas" swaplevel="1"/>
</symbol>
</symbols>
<devicesets>
<deviceset name="19559" urn="urn:adsk.eagle:component:14089/1" prefix="F" uservalue="yes" library_version="1">
<description>&lt;b&gt;FUSE HOLDER&lt;/b&gt;&lt;p&gt;
TR5, Wickmann</description>
<gates>
<gate name="1" symbol="FUSE" x="0" y="0"/>
</gates>
<devices>
<device name="" package="19559">
<connects>
<connect gate="1" pin="1" pad="1"/>
<connect gate="1" pin="2" pad="2"/>
</connects>
<package3dinstances>
<package3dinstance package3d_urn="urn:adsk.eagle:package:14056/1"/>
</package3dinstances>
<technologies>
<technology name="">
<attribute name="MF" value="" constant="no"/>
<attribute name="MPN" value="55900000001" constant="no"/>
<attribute name="OC_FARNELL" value="9516360" constant="no"/>
<attribute name="OC_NEWARK" value="02P0286" constant="no"/>
</technology>
</technologies>
</device>
</devices>
</deviceset>
</devicesets>
</library>
<library name="docu-dummy" urn="urn:adsk.eagle:library:215">
<description>Dummy symbols</description>
<packages>
</packages>
<symbols>
<symbol name="ELKO" urn="urn:adsk.eagle:symbol:13165/1" library_version="1">
<wire x1="-1.524" y1="-0.889" x2="1.524" y2="-0.889" width="0.254" layer="94"/>
<wire x1="1.524" y1="-0.889" x2="1.524" y2="0" width="0.254" layer="94"/>
<wire x1="-1.524" y1="0" x2="-1.524" y2="-0.889" width="0.254" layer="94"/>
<wire x1="-1.524" y1="0" x2="0" y2="0" width="0.254" layer="94"/>
<wire x1="0" y1="0" x2="1.524" y2="0" width="0.254" layer="94"/>
<wire x1="0" y1="0" x2="0" y2="2.54" width="0.1524" layer="94"/>
<wire x1="0" y1="-2.54" x2="0" y2="-5.08" width="0.1524" layer="94"/>
<text x="-0.5842" y="0.4064" size="1.27" layer="94" rot="R90">+</text>
<rectangle x1="-1.651" y1="-2.54" x2="1.651" y2="-1.651" layer="94"/>
</symbol>
</symbols>
<devicesets>
<deviceset name="ELKO" urn="urn:adsk.eagle:component:13177/1" prefix="C" library_version="1">
<description>&lt;b&gt;ELektrolyt Capacitor&lt;/b&gt;</description>
<gates>
<gate name="G$1" symbol="ELKO" x="0" y="0"/>
</gates>
<devices>
<device name="">
<technologies>
<technology name=""/>
</technologies>
</device>
</devices>
</deviceset>
</devicesets>
</library>
<library name="eagle-ltspice" urn="urn:adsk.eagle:library:217">
<description>Default symbols for import LTspice schematics&lt;p&gt;
2012-10-29 alf@cadsoft.de&lt;br&gt;</description>
<packages>
<package name="0204/7" urn="urn:adsk.eagle:footprint:13215/1" library_version="1">
<description>&lt;b&gt;RESISTOR&lt;/b&gt;&lt;p&gt;
type 0204, grid 7.5 mm</description>
<wire x1="3.81" y1="0" x2="2.921" y2="0" width="0.508" layer="51"/>
<wire x1="-3.81" y1="0" x2="-2.921" y2="0" width="0.508" layer="51"/>
<wire x1="-2.54" y1="0.762" x2="-2.286" y2="1.016" width="0.1524" layer="21" curve="-90"/>
<wire x1="-2.54" y1="-0.762" x2="-2.286" y2="-1.016" width="0.1524" layer="21" curve="90"/>
<wire x1="2.286" y1="-1.016" x2="2.54" y2="-0.762" width="0.1524" layer="21" curve="90"/>
<wire x1="2.286" y1="1.016" x2="2.54" y2="0.762" width="0.1524" layer="21" curve="-90"/>
<wire x1="-2.54" y1="-0.762" x2="-2.54" y2="0.762" width="0.1524" layer="21"/>
<wire x1="-2.286" y1="1.016" x2="-1.905" y2="1.016" width="0.1524" layer="21"/>
<wire x1="-1.778" y1="0.889" x2="-1.905" y2="1.016" width="0.1524" layer="21"/>
<wire x1="-2.286" y1="-1.016" x2="-1.905" y2="-1.016" width="0.1524" layer="21"/>
<wire x1="-1.778" y1="-0.889" x2="-1.905" y2="-1.016" width="0.1524" layer="21"/>
<wire x1="1.778" y1="0.889" x2="1.905" y2="1.016" width="0.1524" layer="21"/>
<wire x1="1.778" y1="0.889" x2="-1.778" y2="0.889" width="0.1524" layer="21"/>
<wire x1="1.778" y1="-0.889" x2="1.905" y2="-1.016" width="0.1524" layer="21"/>
<wire x1="1.778" y1="-0.889" x2="-1.778" y2="-0.889" width="0.1524" layer="21"/>
<wire x1="2.286" y1="1.016" x2="1.905" y2="1.016" width="0.1524" layer="21"/>
<wire x1="2.286" y1="-1.016" x2="1.905" y2="-1.016" width="0.1524" layer="21"/>
<wire x1="2.54" y1="-0.762" x2="2.54" y2="0.762" width="0.1524" layer="21"/>
<rectangle x1="2.54" y1="-0.254" x2="2.921" y2="0.254" layer="21"/>
<rectangle x1="-2.921" y1="-0.254" x2="-2.54" y2="0.254" layer="21"/>
<pad name="1" x="-3.81" y="0" drill="0.8128" shape="octagon"/>
<pad name="2" x="3.81" y="0" drill="0.8128" shape="octagon"/>
<text x="-2.54" y="1.2954" size="0.9906" layer="25" ratio="10">&gt;NAME</text>
<text x="-1.6256" y="-0.4826" size="0.9906" layer="27" ratio="10">&gt;VALUE</text>
</package>
<package name="0207/10" urn="urn:adsk.eagle:footprint:13216/1" library_version="1">
<description>&lt;b&gt;RESISTOR&lt;/b&gt;&lt;p&gt;
type 0207, grid 10 mm</description>
<wire x1="5.08" y1="0" x2="4.064" y2="0" width="0.6096" layer="51"/>
<wire x1="-5.08" y1="0" x2="-4.064" y2="0" width="0.6096" layer="51"/>
<wire x1="-3.175" y1="0.889" x2="-2.921" y2="1.143" width="0.1524" layer="21" curve="-90"/>
<wire x1="-3.175" y1="-0.889" x2="-2.921" y2="-1.143" width="0.1524" layer="21" curve="90"/>
<wire x1="2.921" y1="-1.143" x2="3.175" y2="-0.889" width="0.1524" layer="21" curve="90"/>
<wire x1="2.921" y1="1.143" x2="3.175" y2="0.889" width="0.1524" layer="21" curve="-90"/>
<wire x1="-3.175" y1="-0.889" x2="-3.175" y2="0.889" width="0.1524" layer="21"/>
<wire x1="-2.921" y1="1.143" x2="-2.54" y2="1.143" width="0.1524" layer="21"/>
<wire x1="-2.413" y1="1.016" x2="-2.54" y2="1.143" width="0.1524" layer="21"/>
<wire x1="-2.921" y1="-1.143" x2="-2.54" y2="-1.143" width="0.1524" layer="21"/>
<wire x1="-2.413" y1="-1.016" x2="-2.54" y2="-1.143" width="0.1524" layer="21"/>
<wire x1="2.413" y1="1.016" x2="2.54" y2="1.143" width="0.1524" layer="21"/>
<wire x1="2.413" y1="1.016" x2="-2.413" y2="1.016" width="0.1524" layer="21"/>
<wire x1="2.413" y1="-1.016" x2="2.54" y2="-1.143" width="0.1524" layer="21"/>
<wire x1="2.413" y1="-1.016" x2="-2.413" y2="-1.016" width="0.1524" layer="21"/>
<wire x1="2.921" y1="1.143" x2="2.54" y2="1.143" width="0.1524" layer="21"/>
<wire x1="2.921" y1="-1.143" x2="2.54" y2="-1.143" width="0.1524" layer="21"/>
<wire x1="3.175" y1="-0.889" x2="3.175" y2="0.889" width="0.1524" layer="21"/>
<rectangle x1="3.175" y1="-0.3048" x2="4.0386" y2="0.3048" layer="21"/>
<rectangle x1="-4.0386" y1="-0.3048" x2="-3.175" y2="0.3048" layer="21"/>
<pad name="1" x="-5.08" y="0" drill="0.8128" shape="octagon"/>
<pad name="2" x="5.08" y="0" drill="0.8128" shape="octagon"/>
<text x="-3.048" y="1.524" size="1.27" layer="25" ratio="10">&gt;NAME</text>
<text x="-2.2606" y="-0.635" size="1.27" layer="27" ratio="10">&gt;VALUE</text>
</package>
<package name="R0201" urn="urn:adsk.eagle:footprint:13233/1" library_version="1">
<description>&lt;b&gt;RESISTOR&lt;/b&gt; chip&lt;p&gt;
Source: http://www.vishay.com/docs/20008/dcrcw.pdf</description>
<rectangle x1="-0.3" y1="-0.15" x2="-0.15" y2="0.15" layer="51"/>
<rectangle x1="0.15" y1="-0.15" x2="0.3" y2="0.15" layer="51"/>
<rectangle x1="-0.15" y1="-0.15" x2="0.15" y2="0.15" layer="21"/>
<smd name="1" x="-0.255" y="0" dx="0.28" dy="0.43" layer="1"/>
<smd name="2" x="0.255" y="0" dx="0.28" dy="0.43" layer="1"/>
<text x="-0.635" y="0.635" size="1.27" layer="25">&gt;NAME</text>
<text x="-0.635" y="-1.905" size="1.27" layer="27">&gt;VALUE</text>
</package>
<package name="R0402" urn="urn:adsk.eagle:footprint:13234/1" library_version="1">
<description>&lt;b&gt;RESISTOR&lt;/b&gt;</description>
<wire x1="-0.245" y1="0.224" x2="0.245" y2="0.224" width="0.1524" layer="51"/>
<wire x1="0.245" y1="-0.224" x2="-0.245" y2="-0.224" width="0.1524" layer="51"/>
<wire x1="-1.473" y1="0.483" x2="1.473" y2="0.483" width="0.0508" layer="39"/>
<wire x1="1.473" y1="0.483" x2="1.473" y2="-0.483" width="0.0508" layer="39"/>
<wire x1="1.473" y1="-0.483" x2="-1.473" y2="-0.483" width="0.0508" layer="39"/>
<wire x1="-1.473" y1="-0.483" x2="-1.473" y2="0.483" width="0.0508" layer="39"/>
<rectangle x1="-0.554" y1="-0.3048" x2="-0.254" y2="0.2951" layer="51"/>
<rectangle x1="0.2588" y1="-0.3048" x2="0.5588" y2="0.2951" layer="51"/>
<rectangle x1="-0.1999" y1="-0.4001" x2="0.1999" y2="0.4001" layer="35"/>
<smd name="1" x="-0.65" y="0" dx="0.7" dy="0.9" layer="1"/>
<smd name="2" x="0.65" y="0" dx="0.7" dy="0.9" layer="1"/>
<text x="-0.635" y="0.635" size="1.27" layer="25">&gt;NAME</text>
<text x="-0.635" y="-1.905" size="1.27" layer="27">&gt;VALUE</text>
</package>
<package name="R0603" urn="urn:adsk.eagle:footprint:13235/1" library_version="1">
<description>&lt;b&gt;RESISTOR&lt;/b&gt;</description>
<wire x1="-0.432" y1="-0.356" x2="0.432" y2="-0.356" width="0.1524" layer="51"/>
<wire x1="0.432" y1="0.356" x2="-0.432" y2="0.356" width="0.1524" layer="51"/>
<wire x1="-1.473" y1="0.983" x2="1.473" y2="0.983" width="0.0508" layer="39"/>
<wire x1="1.473" y1="0.983" x2="1.473" y2="-0.983" width="0.0508" layer="39"/>
<wire x1="1.473" y1="-0.983" x2="-1.473" y2="-0.983" width="0.0508" layer="39"/>
<wire x1="-1.473" y1="-0.983" x2="-1.473" y2="0.983" width="0.0508" layer="39"/>
<rectangle x1="0.4318" y1="-0.4318" x2="0.8382" y2="0.4318" layer="51"/>
<rectangle x1="-0.8382" y1="-0.4318" x2="-0.4318" y2="0.4318" layer="51"/>
<rectangle x1="-0.1999" y1="-0.4001" x2="0.1999" y2="0.4001" layer="35"/>
<smd name="1" x="-0.85" y="0" dx="1" dy="1.1" layer="1"/>
<smd name="2" x="0.85" y="0" dx="1" dy="1.1" layer="1"/>
<text x="-0.635" y="0.635" size="1.27" layer="25">&gt;NAME</text>
<text x="-0.635" y="-1.905" size="1.27" layer="27">&gt;VALUE</text>
</package>
<package name="R0805" urn="urn:adsk.eagle:footprint:13236/1" library_version="1">
<description>&lt;b&gt;RESISTOR&lt;/b&gt;&lt;p&gt;</description>
<wire x1="-0.41" y1="0.635" x2="0.41" y2="0.635" width="0.1524" layer="51"/>
<wire x1="-0.41" y1="-0.635" x2="0.41" y2="-0.635" width="0.1524" layer="51"/>
<wire x1="-1.973" y1="0.983" x2="1.973" y2="0.983" width="0.0508" layer="39"/>
<wire x1="1.973" y1="0.983" x2="1.973" y2="-0.983" width="0.0508" layer="39"/>
<wire x1="1.973" y1="-0.983" x2="-1.973" y2="-0.983" width="0.0508" layer="39"/>
<wire x1="-1.973" y1="-0.983" x2="-1.973" y2="0.983" width="0.0508" layer="39"/>
<rectangle x1="0.4064" y1="-0.6985" x2="1.0564" y2="0.7015" layer="51"/>
<rectangle x1="-1.0668" y1="-0.6985" x2="-0.4168" y2="0.7015" layer="51"/>
<rectangle x1="-0.1999" y1="-0.5001" x2="0.1999" y2="0.5001" layer="35"/>
<smd name="1" x="-0.95" y="0" dx="1.3" dy="1.5" layer="1"/>
<smd name="2" x="0.95" y="0" dx="1.3" dy="1.5" layer="1"/>
<text x="-0.635" y="1.27" size="1.27" layer="25">&gt;NAME</text>
<text x="-0.635" y="-2.54" size="1.27" layer="27">&gt;VALUE</text>
</package>
<package name="R1005" urn="urn:adsk.eagle:footprint:13237/1" library_version="1">
<description>&lt;b&gt;RESISTOR&lt;/b&gt;</description>
<wire x1="-0.245" y1="0.224" x2="0.245" y2="0.224" width="0.1524" layer="51"/>
<wire x1="0.245" y1="-0.224" x2="-0.245" y2="-0.224" width="0.1524" layer="51"/>
<wire x1="-1.473" y1="0.483" x2="1.473" y2="0.483" width="0.0508" layer="39"/>
<wire x1="1.473" y1="0.483" x2="1.473" y2="-0.483" width="0.0508" layer="39"/>
<wire x1="1.473" y1="-0.483" x2="-1.473" y2="-0.483" width="0.0508" layer="39"/>
<wire x1="-1.473" y1="-0.483" x2="-1.473" y2="0.483" width="0.0508" layer="39"/>
<rectangle x1="-0.554" y1="-0.3048" x2="-0.254" y2="0.2951" layer="51"/>
<rectangle x1="0.2588" y1="-0.3048" x2="0.5588" y2="0.2951" layer="51"/>
<rectangle x1="-0.1999" y1="-0.3" x2="0.1999" y2="0.3" layer="35"/>
<smd name="1" x="-0.65" y="0" dx="0.7" dy="0.9" layer="1"/>
<smd name="2" x="0.65" y="0" dx="0.7" dy="0.9" layer="1"/>
<text x="-0.635" y="0.635" size="1.27" layer="25">&gt;NAME</text>
<text x="-0.635" y="-1.905" size="1.27" layer="27">&gt;VALUE</text>
</package>
<package name="R1206" urn="urn:adsk.eagle:footprint:13238/1" library_version="1">
<description>&lt;b&gt;RESISTOR&lt;/b&gt;</description>
<wire x1="0.9525" y1="-0.8128" x2="-0.9652" y2="-0.8128" width="0.1524" layer="51"/>
<wire x1="0.9525" y1="0.8128" x2="-0.9652" y2="0.8128" width="0.1524" layer="51"/>
<wire x1="-2.473" y1="0.983" x2="2.473" y2="0.983" width="0.0508" layer="39"/>
<wire x1="2.473" y1="0.983" x2="2.473" y2="-0.983" width="0.0508" layer="39"/>
<wire x1="2.473" y1="-0.983" x2="-2.473" y2="-0.983" width="0.0508" layer="39"/>
<wire x1="-2.473" y1="-0.983" x2="-2.473" y2="0.983" width="0.0508" layer="39"/>
<rectangle x1="-1.6891" y1="-0.8763" x2="-0.9525" y2="0.8763" layer="51"/>
<rectangle x1="0.9525" y1="-0.8763" x2="1.6891" y2="0.8763" layer="51"/>
<rectangle x1="-0.3" y1="-0.7" x2="0.3" y2="0.7" layer="35"/>
<smd name="1" x="-1.422" y="0" dx="1.6" dy="1.803" layer="1"/>
<smd name="2" x="1.422" y="0" dx="1.6" dy="1.803" layer="1"/>
<text x="-1.27" y="1.27" size="1.27" layer="25">&gt;NAME</text>
<text x="-1.27" y="-2.54" size="1.27" layer="27">&gt;VALUE</text>
</package>
<package name="R1210" urn="urn:adsk.eagle:footprint:13239/1" library_version="1">
<description>&lt;b&gt;RESISTOR&lt;/b&gt;</description>
<wire x1="-0.913" y1="1.219" x2="0.939" y2="1.219" width="0.1524" layer="51"/>
<wire x1="-0.913" y1="-1.219" x2="0.939" y2="-1.219" width="0.1524" layer="51"/>
<wire x1="-2.473" y1="1.483" x2="2.473" y2="1.483" width="0.0508" layer="39"/>
<wire x1="2.473" y1="1.483" x2="2.473" y2="-1.483" width="0.0508" layer="39"/>
<wire x1="2.473" y1="-1.483" x2="-2.473" y2="-1.483" width="0.0508" layer="39"/>
<wire x1="-2.473" y1="-1.483" x2="-2.473" y2="1.483" width="0.0508" layer="39"/>
<rectangle x1="-1.651" y1="-1.3081" x2="-0.9009" y2="1.2918" layer="51"/>
<rectangle x1="0.9144" y1="-1.3081" x2="1.6645" y2="1.2918" layer="51"/>
<rectangle x1="-0.3" y1="-0.8999" x2="0.3" y2="0.8999" layer="35"/>
<smd name="1" x="-1.4" y="0" dx="1.6" dy="2.7" layer="1"/>
<smd name="2" x="1.4" y="0" dx="1.6" dy="2.7" layer="1"/>
<text x="-2.54" y="1.905" size="1.27" layer="25">&gt;NAME</text>
<text x="-2.54" y="-3.175" size="1.27" layer="27">&gt;VALUE</text>
</package>
<package name="R1218" urn="urn:adsk.eagle:footprint:13240/1" library_version="1">
<description>&lt;b&gt;CRCW1218 Thick Film, Rectangular Chip Resistors&lt;/b&gt;&lt;p&gt;
Source: http://www.vishay.com .. dcrcw.pdf</description>
<wire x1="-0.913" y1="-2.219" x2="0.939" y2="-2.219" width="0.1524" layer="51"/>
<wire x1="0.913" y1="2.219" x2="-0.939" y2="2.219" width="0.1524" layer="51"/>
<rectangle x1="-1.651" y1="-2.3" x2="-0.9009" y2="2.3" layer="51"/>
<rectangle x1="0.9144" y1="-2.3" x2="1.6645" y2="2.3" layer="51"/>
<smd name="1" x="-1.475" y="0" dx="1.05" dy="4.9" layer="1"/>
<smd name="2" x="1.475" y="0" dx="1.05" dy="4.9" layer="1"/>
<text x="-2.54" y="2.54" size="1.27" layer="25">&gt;NAME</text>
<text x="-2.54" y="-3.81" size="1.27" layer="27">&gt;VALUE</text>
</package>
<package name="R2010" urn="urn:adsk.eagle:footprint:13241/1" library_version="1">
<description>&lt;b&gt;RESISTOR&lt;/b&gt;</description>
<wire x1="-1.662" y1="1.245" x2="1.662" y2="1.245" width="0.1524" layer="51"/>
<wire x1="-1.637" y1="-1.245" x2="1.687" y2="-1.245" width="0.1524" layer="51"/>
<wire x1="-3.473" y1="1.483" x2="3.473" y2="1.483" width="0.0508" layer="39"/>
<wire x1="3.473" y1="1.483" x2="3.473" y2="-1.483" width="0.0508" layer="39"/>
<wire x1="3.473" y1="-1.483" x2="-3.473" y2="-1.483" width="0.0508" layer="39"/>
<wire x1="-3.473" y1="-1.483" x2="-3.473" y2="1.483" width="0.0508" layer="39"/>
<rectangle x1="-2.4892" y1="-1.3208" x2="-1.6393" y2="1.3292" layer="51"/>
<rectangle x1="1.651" y1="-1.3208" x2="2.5009" y2="1.3292" layer="51"/>
<smd name="1" x="-2.2" y="0" dx="1.8" dy="2.7" layer="1"/>
<smd name="2" x="2.2" y="0" dx="1.8" dy="2.7" layer="1"/>
<text x="-3.175" y="1.905" size="1.27" layer="25">&gt;NAME</text>
<text x="-3.175" y="-3.175" size="1.27" layer="27">&gt;VALUE</text>
</package>
<package name="R2012" urn="urn:adsk.eagle:footprint:13242/1" library_version="1">
<description>&lt;b&gt;RESISTOR&lt;/b&gt;</description>
<wire x1="-0.41" y1="0.635" x2="0.41" y2="0.635" width="0.1524" layer="51"/>
<wire x1="-0.41" y1="-0.635" x2="0.41" y2="-0.635" width="0.1524" layer="51"/>
<wire x1="-1.973" y1="0.983" x2="1.973" y2="0.983" width="0.0508" layer="39"/>
<wire x1="1.973" y1="0.983" x2="1.973" y2="-0.983" width="0.0508" layer="39"/>
<wire x1="1.973" y1="-0.983" x2="-1.973" y2="-0.983" width="0.0508" layer="39"/>
<wire x1="-1.973" y1="-0.983" x2="-1.973" y2="0.983" width="0.0508" layer="39"/>
<rectangle x1="0.4064" y1="-0.6985" x2="1.0564" y2="0.7015" layer="51"/>
<rectangle x1="-1.0668" y1="-0.6985" x2="-0.4168" y2="0.7015" layer="51"/>
<rectangle x1="-0.1001" y1="-0.5999" x2="0.1001" y2="0.5999" layer="35"/>
<smd name="1" x="-0.85" y="0" dx="1.3" dy="1.5" layer="1"/>
<smd name="2" x="0.85" y="0" dx="1.3" dy="1.5" layer="1"/>
<text x="-0.635" y="1.27" size="1.27" layer="25">&gt;NAME</text>
<text x="-0.635" y="-2.54" size="1.27" layer="27">&gt;VALUE</text>
</package>
<package name="R2512" urn="urn:adsk.eagle:footprint:13243/1" library_version="1">
<description>&lt;b&gt;RESISTOR&lt;/b&gt;</description>
<wire x1="-2.362" y1="1.473" x2="2.387" y2="1.473" width="0.1524" layer="51"/>
<wire x1="-2.362" y1="-1.473" x2="2.387" y2="-1.473" width="0.1524" layer="51"/>
<wire x1="-3.973" y1="1.983" x2="3.973" y2="1.983" width="0.0508" layer="39"/>
<wire x1="3.973" y1="1.983" x2="3.973" y2="-1.983" width="0.0508" layer="39"/>
<wire x1="3.973" y1="-1.983" x2="-3.973" y2="-1.983" width="0.0508" layer="39"/>
<wire x1="-3.973" y1="-1.983" x2="-3.973" y2="1.983" width="0.0508" layer="39"/>
<rectangle x1="-3.2004" y1="-1.5494" x2="-2.3505" y2="1.5507" layer="51"/>
<rectangle x1="2.3622" y1="-1.5494" x2="3.2121" y2="1.5507" layer="51"/>
<rectangle x1="-0.5001" y1="-1" x2="0.5001" y2="1" layer="35"/>
<smd name="1" x="-2.8" y="0" dx="1.8" dy="3.2" layer="1"/>
<smd name="2" x="2.8" y="0" dx="1.8" dy="3.2" layer="1"/>
<text x="-2.54" y="1.905" size="1.27" layer="25">&gt;NAME</text>
<text x="-2.54" y="-3.175" size="1.27" layer="27">&gt;VALUE</text>
</package>
<package name="R3216" urn="urn:adsk.eagle:footprint:13244/1" library_version="1">
<description>&lt;b&gt;RESISTOR&lt;/b&gt;</description>
<wire x1="-0.913" y1="0.8" x2="0.888" y2="0.8" width="0.1524" layer="51"/>
<wire x1="-0.913" y1="-0.8" x2="0.888" y2="-0.8" width="0.1524" layer="51"/>
<wire x1="-2.473" y1="0.983" x2="2.473" y2="0.983" width="0.0508" layer="39"/>
<wire x1="2.473" y1="0.983" x2="2.473" y2="-0.983" width="0.0508" layer="39"/>
<wire x1="2.473" y1="-0.983" x2="-2.473" y2="-0.983" width="0.0508" layer="39"/>
<wire x1="-2.473" y1="-0.983" x2="-2.473" y2="0.983" width="0.0508" layer="39"/>
<rectangle x1="-1.651" y1="-0.8763" x2="-0.9009" y2="0.8738" layer="51"/>
<rectangle x1="0.889" y1="-0.8763" x2="1.6391" y2="0.8738" layer="51"/>
<rectangle x1="-0.3" y1="-0.7" x2="0.3" y2="0.7" layer="35"/>
<smd name="1" x="-1.4" y="0" dx="1.6" dy="1.8" layer="1"/>
<smd name="2" x="1.4" y="0" dx="1.6" dy="1.8" layer="1"/>
<text x="-1.905" y="1.27" size="1.27" layer="25">&gt;NAME</text>
<text x="-1.905" y="-2.54" size="1.27" layer="27">&gt;VALUE</text>
</package>
<package name="R3225" urn="urn:adsk.eagle:footprint:13245/1" library_version="1">
<description>&lt;b&gt;RESISTOR&lt;/b&gt;</description>
<wire x1="-0.913" y1="1.219" x2="0.939" y2="1.219" width="0.1524" layer="51"/>
<wire x1="-0.913" y1="-1.219" x2="0.939" y2="-1.219" width="0.1524" layer="51"/>
<wire x1="-2.473" y1="1.483" x2="2.473" y2="1.483" width="0.0508" layer="39"/>
<wire x1="2.473" y1="1.483" x2="2.473" y2="-1.483" width="0.0508" layer="39"/>
<wire x1="2.473" y1="-1.483" x2="-2.473" y2="-1.483" width="0.0508" layer="39"/>
<wire x1="-2.473" y1="-1.483" x2="-2.473" y2="1.483" width="0.0508" layer="39"/>
<rectangle x1="-1.651" y1="-1.3081" x2="-0.9009" y2="1.2918" layer="51"/>
<rectangle x1="0.9144" y1="-1.3081" x2="1.6645" y2="1.2918" layer="51"/>
<rectangle x1="-0.3" y1="-1" x2="0.3" y2="1" layer="35"/>
<smd name="1" x="-1.4" y="0" dx="1.6" dy="2.7" layer="1"/>
<smd name="2" x="1.4" y="0" dx="1.6" dy="2.7" layer="1"/>
<text x="-2.54" y="1.905" size="1.27" layer="25">&gt;NAME</text>
<text x="-2.54" y="-3.175" size="1.27" layer="27">&gt;VALUE</text>
</package>
<package name="R4527" urn="urn:adsk.eagle:footprint:13246/1" library_version="1">
<description>&lt;b&gt;Package 4527&lt;/b&gt;&lt;p&gt;
Source: http://www.vishay.com/docs/31059/wsrhigh.pdf</description>
<wire x1="-5.675" y1="-3.375" x2="5.65" y2="-3.375" width="0.2032" layer="21"/>
<wire x1="5.65" y1="-3.375" x2="5.65" y2="3.375" width="0.2032" layer="51"/>
<wire x1="5.65" y1="3.375" x2="-5.675" y2="3.375" width="0.2032" layer="21"/>
<wire x1="-5.675" y1="3.375" x2="-5.675" y2="-3.375" width="0.2032" layer="51"/>
<smd name="1" x="-4.575" y="0" dx="3.94" dy="5.84" layer="1"/>
<smd name="2" x="4.575" y="0" dx="3.94" dy="5.84" layer="1"/>
<text x="-5.715" y="3.81" size="1.27" layer="25">&gt;NAME</text>
<text x="-5.715" y="-5.08" size="1.27" layer="27">&gt;VALUE</text>
</package>
<package name="R5025" urn="urn:adsk.eagle:footprint:13247/1" library_version="1">
<description>&lt;b&gt;RESISTOR&lt;/b&gt;</description>
<wire x1="-1.662" y1="1.245" x2="1.662" y2="1.245" width="0.1524" layer="51"/>
<wire x1="-1.637" y1="-1.245" x2="1.687" y2="-1.245" width="0.1524" layer="51"/>
<wire x1="-3.473" y1="1.483" x2="3.473" y2="1.483" width="0.0508" layer="39"/>
<wire x1="3.473" y1="1.483" x2="3.473" y2="-1.483" width="0.0508" layer="39"/>
<wire x1="3.473" y1="-1.483" x2="-3.473" y2="-1.483" width="0.0508" layer="39"/>
<wire x1="-3.473" y1="-1.483" x2="-3.473" y2="1.483" width="0.0508" layer="39"/>
<rectangle x1="-2.4892" y1="-1.3208" x2="-1.6393" y2="1.3292" layer="51"/>
<rectangle x1="1.651" y1="-1.3208" x2="2.5009" y2="1.3292" layer="51"/>
<rectangle x1="-0.5001" y1="-1" x2="0.5001" y2="1" layer="35"/>
<smd name="1" x="-2.2" y="0" dx="1.8" dy="2.7" layer="1"/>
<smd name="2" x="2.2" y="0" dx="1.8" dy="2.7" layer="1"/>
<text x="-3.175" y="1.905" size="1.27" layer="25">&gt;NAME</text>
<text x="-3.175" y="-3.175" size="1.27" layer="27">&gt;VALUE</text>
</package>
<package name="R6332" urn="urn:adsk.eagle:footprint:13248/1" library_version="1">
<description>&lt;b&gt;RESISTOR&lt;/b&gt;&lt;p&gt;
Source: http://download.siliconexpert.com/pdfs/2005/02/24/Semi_Ap/2/VSH/Resistor/dcrcwfre.pdf</description>
<wire x1="-2.362" y1="1.473" x2="2.387" y2="1.473" width="0.1524" layer="51"/>
<wire x1="-2.362" y1="-1.473" x2="2.387" y2="-1.473" width="0.1524" layer="51"/>
<wire x1="-3.973" y1="1.983" x2="3.973" y2="1.983" width="0.0508" layer="39"/>
<wire x1="3.973" y1="1.983" x2="3.973" y2="-1.983" width="0.0508" layer="39"/>
<wire x1="3.973" y1="-1.983" x2="-3.973" y2="-1.983" width="0.0508" layer="39"/>
<wire x1="-3.973" y1="-1.983" x2="-3.973" y2="1.983" width="0.0508" layer="39"/>
<rectangle x1="-3.2004" y1="-1.5494" x2="-2.3505" y2="1.5507" layer="51"/>
<rectangle x1="2.3622" y1="-1.5494" x2="3.2121" y2="1.5507" layer="51"/>
<rectangle x1="-0.5001" y1="-1" x2="0.5001" y2="1" layer="35"/>
<smd name="1" x="-3.1" y="0" dx="1" dy="3.2" layer="1"/>
<smd name="2" x="3.1" y="0" dx="1" dy="3.2" layer="1"/>
<text x="-2.54" y="1.905" size="1.27" layer="25">&gt;NAME</text>
<text x="-2.54" y="-3.175" size="1.27" layer="27">&gt;VALUE</text>
</package>
</packages>
<packages3d>
<package3d name="0204/7" urn="urn:adsk.eagle:package:13274/1" type="box" library_version="1">
<description>RESISTOR
type 0204, grid 7.5 mm</description>
<packageinstances>
<packageinstance name="0204/7"/>
</packageinstances>
</package3d>
<package3d name="0207/10" urn="urn:adsk.eagle:package:13275/1" type="box" library_version="1">
<description>RESISTOR
type 0207, grid 10 mm</description>
<packageinstances>
<packageinstance name="0207/10"/>
</packageinstances>
</package3d>
<package3d name="R0201" urn="urn:adsk.eagle:package:13294/1" type="box" library_version="1">
<description>RESISTOR chip
Source: http://www.vishay.com/docs/20008/dcrcw.pdf</description>
<packageinstances>
<packageinstance name="R0201"/>
</packageinstances>
</package3d>
<package3d name="R0402" urn="urn:adsk.eagle:package:13296/1" type="box" library_version="1">
<description>RESISTOR</description>
<packageinstances>
<packageinstance name="R0402"/>
</packageinstances>
</package3d>
<package3d name="R0603" urn="urn:adsk.eagle:package:13302/1" type="box" library_version="1">
<description>RESISTOR</description>
<packageinstances>
<packageinstance name="R0603"/>
</packageinstances>
</package3d>
<package3d name="R0805" urn="urn:adsk.eagle:package:13300/1" type="box" library_version="1">
<description>RESISTOR</description>
<packageinstances>
<packageinstance name="R0805"/>
</packageinstances>
</package3d>
<package3d name="R1005" urn="urn:adsk.eagle:package:13297/1" type="box" library_version="1">
<description>RESISTOR</description>
<packageinstances>
<packageinstance name="R1005"/>
</packageinstances>
</package3d>
<package3d name="R1206" urn="urn:adsk.eagle:package:13301/1" type="box" library_version="1">
<description>RESISTOR</description>
<packageinstances>
<packageinstance name="R1206"/>
</packageinstances>
</package3d>
<package3d name="R1210" urn="urn:adsk.eagle:package:13299/1" type="box" library_version="1">
<description>RESISTOR</description>
<packageinstances>
<packageinstance name="R1210"/>
</packageinstances>
</package3d>
<package3d name="R1218" urn="urn:adsk.eagle:package:13303/1" type="box" library_version="1">
<description>CRCW1218 Thick Film, Rectangular Chip Resistors
Source: http://www.vishay.com .. dcrcw.pdf</description>
<packageinstances>
<packageinstance name="R1218"/>
</packageinstances>
</package3d>
<package3d name="R2010" urn="urn:adsk.eagle:package:13309/1" type="box" library_version="1">
<description>RESISTOR</description>
<packageinstances>
<packageinstance name="R2010"/>
</packageinstances>
</package3d>
<package3d name="R2012" urn="urn:adsk.eagle:package:13306/1" type="box" library_version="1">
<description>RESISTOR</description>
<packageinstances>
<packageinstance name="R2012"/>
</packageinstances>
</package3d>
<package3d name="R2512" urn="urn:adsk.eagle:package:13304/1" type="box" library_version="1">
<description>RESISTOR</description>
<packageinstances>
<packageinstance name="R2512"/>
</packageinstances>
</package3d>
<package3d name="R3216" urn="urn:adsk.eagle:package:13305/1" type="box" library_version="1">
<description>RESISTOR</description>
<packageinstances>
<packageinstance name="R3216"/>
</packageinstances>
</package3d>
<package3d name="R3225" urn="urn:adsk.eagle:package:13311/1" type="box" library_version="1">
<description>RESISTOR</description>
<packageinstances>
<packageinstance name="R3225"/>
</packageinstances>
</package3d>
<package3d name="R4527" urn="urn:adsk.eagle:package:13310/1" type="box" library_version="1">
<description>Package 4527
Source: http://www.vishay.com/docs/31059/wsrhigh.pdf</description>
<packageinstances>
<packageinstance name="R4527"/>
</packageinstances>
</package3d>
<package3d name="R5025" urn="urn:adsk.eagle:package:13308/1" type="box" library_version="1">
<description>RESISTOR</description>
<packageinstances>
<packageinstance name="R5025"/>
</packageinstances>
</package3d>
<package3d name="R6332" urn="urn:adsk.eagle:package:13307/1" type="box" library_version="1">
<description>RESISTOR
Source: http://download.siliconexpert.com/pdfs/2005/02/24/Semi_Ap/2/VSH/Resistor/dcrcwfre.pdf</description>
<packageinstances>
<packageinstance name="R6332"/>
</packageinstances>
</package3d>
</packages3d>
<symbols>
<symbol name="R" urn="urn:adsk.eagle:symbol:13232/1" library_version="1">
<wire x1="-2.54" y1="-0.889" x2="2.54" y2="-0.889" width="0.254" layer="94"/>
<wire x1="2.54" y1="0.889" x2="-2.54" y2="0.889" width="0.254" layer="94"/>
<wire x1="2.54" y1="-0.889" x2="2.54" y2="0.889" width="0.254" layer="94"/>
<wire x1="-2.54" y1="-0.889" x2="-2.54" y2="0.889" width="0.254" layer="94"/>
<pin name="1" x="-5.08" y="0" visible="off" length="short" direction="pas" swaplevel="1"/>
<pin name="2" x="5.08" y="0" visible="off" length="short" direction="pas" swaplevel="1" rot="R180"/>
<text x="-3.81" y="1.4986" size="1.778" layer="95">&gt;NAME</text>
<text x="-3.81" y="-3.302" size="1.778" layer="96">&gt;VALUE</text>
<text x="-5.08" y="0" size="0.4064" layer="99" align="center">SpiceOrder 1</text>
<text x="5.08" y="0" size="0.4064" layer="99" align="center">SpiceOrder 2</text>
</symbol>
</symbols>
<devicesets>
<deviceset name="R" urn="urn:adsk.eagle:component:13322/1" prefix="R" uservalue="yes" library_version="1">
<description>&lt;B&gt;RESISTOR&lt;/B&gt;, European symbol</description>
<gates>
<gate name="G$1" symbol="R" x="0" y="0"/>
</gates>
<devices>
<device name="0204/7" package="0204/7">
<connects>
<connect gate="G$1" pin="1" pad="1"/>
<connect gate="G$1" pin="2" pad="2"/>
</connects>
<package3dinstances>
<package3dinstance package3d_urn="urn:adsk.eagle:package:13274/1"/>
</package3dinstances>
<technologies>
<technology name="">
<attribute name="SPICEMODEL" value="NONE" constant="no"/>
<attribute name="SPICEPREFIX" value="R" constant="no"/>
</technology>
</technologies>
</device>
<device name="0207/10" package="0207/10">
<connects>
<connect gate="G$1" pin="1" pad="1"/>
<connect gate="G$1" pin="2" pad="2"/>
</connects>
<package3dinstances>
<package3dinstance package3d_urn="urn:adsk.eagle:package:13275/1"/>
</package3dinstances>
<technologies>
<technology name="">
<attribute name="SPICEMODEL" value="NONE" constant="no"/>
<attribute name="SPICEPREFIX" value="R" constant="no"/>
</technology>
</technologies>
</device>
<device name="R0201" package="R0201">
<connects>
<connect gate="G$1" pin="1" pad="1"/>
<connect gate="G$1" pin="2" pad="2"/>
</connects>
<package3dinstances>
<package3dinstance package3d_urn="urn:adsk.eagle:package:13294/1"/>
</package3dinstances>
<technologies>
<technology name="">
<attribute name="SPICEMODEL" value="NONE" constant="no"/>
<attribute name="SPICEPREFIX" value="R" constant="no"/>
</technology>
</technologies>
</device>
<device name="R0402" package="R0402">
<connects>
<connect gate="G$1" pin="1" pad="1"/>
<connect gate="G$1" pin="2" pad="2"/>
</connects>
<package3dinstances>
<package3dinstance package3d_urn="urn:adsk.eagle:package:13296/1"/>
</package3dinstances>
<technologies>
<technology name="">
<attribute name="SPICEMODEL" value="NONE" constant="no"/>
<attribute name="SPICEPREFIX" value="R" constant="no"/>
</technology>
</technologies>
</device>
<device name="R0603" package="R0603">
<connects>
<connect gate="G$1" pin="1" pad="1"/>
<connect gate="G$1" pin="2" pad="2"/>
</connects>
<package3dinstances>
<package3dinstance package3d_urn="urn:adsk.eagle:package:13302/1"/>
</package3dinstances>
<technologies>
<technology name="">
<attribute name="SPICEMODEL" value="NONE" constant="no"/>
<attribute name="SPICEPREFIX" value="R" constant="no"/>
</technology>
</technologies>
</device>
<device name="" package="R0805">
<connects>
<connect gate="G$1" pin="1" pad="1"/>
<connect gate="G$1" pin="2" pad="2"/>
</connects>
<package3dinstances>
<package3dinstance package3d_urn="urn:adsk.eagle:package:13300/1"/>
</package3dinstances>
<technologies>
<technology name="">
<attribute name="SPICEMODEL" value="NONE" constant="no"/>
<attribute name="SPICEPREFIX" value="R" constant="no"/>
</technology>
</technologies>
</device>
<device name="R1005" package="R1005">
<connects>
<connect gate="G$1" pin="1" pad="1"/>
<connect gate="G$1" pin="2" pad="2"/>
</connects>
<package3dinstances>
<package3dinstance package3d_urn="urn:adsk.eagle:package:13297/1"/>
</package3dinstances>
<technologies>
<technology name="">
<attribute name="SPICEMODEL" value="NONE" constant="no"/>
<attribute name="SPICEPREFIX" value="R" constant="no"/>
</technology>
</technologies>
</device>
<device name="R1206" package="R1206">
<connects>
<connect gate="G$1" pin="1" pad="1"/>
<connect gate="G$1" pin="2" pad="2"/>
</connects>
<package3dinstances>
<package3dinstance package3d_urn="urn:adsk.eagle:package:13301/1"/>
</package3dinstances>
<technologies>
<technology name="">
<attribute name="SPICEMODEL" value="NONE" constant="no"/>
<attribute name="SPICEPREFIX" value="R" constant="no"/>
</technology>
</technologies>
</device>
<device name="R1210" package="R1210">
<connects>
<connect gate="G$1" pin="1" pad="1"/>
<connect gate="G$1" pin="2" pad="2"/>
</connects>
<package3dinstances>
<package3dinstance package3d_urn="urn:adsk.eagle:package:13299/1"/>
</package3dinstances>
<technologies>
<technology name="">
<attribute name="SPICEMODEL" value="NONE" constant="no"/>
<attribute name="SPICEPREFIX" value="R" constant="no"/>
</technology>
</technologies>
</device>
<device name="R1218" package="R1218">
<connects>
<connect gate="G$1" pin="1" pad="1"/>
<connect gate="G$1" pin="2" pad="2"/>
</connects>
<package3dinstances>
<package3dinstance package3d_urn="urn:adsk.eagle:package:13303/1"/>
</package3dinstances>
<technologies>
<technology name="">
<attribute name="SPICEMODEL" value="NONE" constant="no"/>
<attribute name="SPICEPREFIX" value="R" constant="no"/>
</technology>
</technologies>
</device>
<device name="R2010" package="R2010">
<connects>
<connect gate="G$1" pin="1" pad="1"/>
<connect gate="G$1" pin="2" pad="2"/>
</connects>
<package3dinstances>
<package3dinstance package3d_urn="urn:adsk.eagle:package:13309/1"/>
</package3dinstances>
<technologies>
<technology name="">
<attribute name="SPICEMODEL" value="NONE" constant="no"/>
<attribute name="SPICEPREFIX" value="R" constant="no"/>
</technology>
</technologies>
</device>
<device name="R2012" package="R2012">
<connects>
<connect gate="G$1" pin="1" pad="1"/>
<connect gate="G$1" pin="2" pad="2"/>
</connects>
<package3dinstances>
<package3dinstance package3d_urn="urn:adsk.eagle:package:13306/1"/>
</package3dinstances>
<technologies>
<technology name="">
<attribute name="SPICEMODEL" value="NONE" constant="no"/>
<attribute name="SPICEPREFIX" value="R" constant="no"/>
</technology>
</technologies>
</device>
<device name="R2512" package="R2512">
<connects>
<connect gate="G$1" pin="1" pad="1"/>
<connect gate="G$1" pin="2" pad="2"/>
</connects>
<package3dinstances>
<package3dinstance package3d_urn="urn:adsk.eagle:package:13304/1"/>
</package3dinstances>
<technologies>
<technology name="">
<attribute name="SPICEMODEL" value="NONE" constant="no"/>
<attribute name="SPICEPREFIX" value="R" constant="no"/>
</technology>
</technologies>
</device>
<device name="R3216" package="R3216">
<connects>
<connect gate="G$1" pin="1" pad="1"/>
<connect gate="G$1" pin="2" pad="2"/>
</connects>
<package3dinstances>
<package3dinstance package3d_urn="urn:adsk.eagle:package:13305/1"/>
</package3dinstances>
<technologies>
<technology name="">
<attribute name="SPICEMODEL" value="NONE" constant="no"/>
<attribute name="SPICEPREFIX" value="R" constant="no"/>
</technology>
</technologies>
</device>
<device name="R3225" package="R3225">
<connects>
<connect gate="G$1" pin="1" pad="1"/>
<connect gate="G$1" pin="2" pad="2"/>
</connects>
<package3dinstances>
<package3dinstance package3d_urn="urn:adsk.eagle:package:13311/1"/>
</package3dinstances>
<technologies>
<technology name="">
<attribute name="SPICEMODEL" value="NONE" constant="no"/>
<attribute name="SPICEPREFIX" value="R" constant="no"/>
</technology>
</technologies>
</device>
<device name="R4527" package="R4527">
<connects>
<connect gate="G$1" pin="1" pad="1"/>
<connect gate="G$1" pin="2" pad="2"/>
</connects>
<package3dinstances>
<package3dinstance package3d_urn="urn:adsk.eagle:package:13310/1"/>
</package3dinstances>
<technologies>
<technology name="">
<attribute name="SPICEMODEL" value="NONE" constant="no"/>
<attribute name="SPICEPREFIX" value="R" constant="no"/>
</technology>
</technologies>
</device>
<device name="R5025" package="R5025">
<connects>
<connect gate="G$1" pin="1" pad="1"/>
<connect gate="G$1" pin="2" pad="2"/>
</connects>
<package3dinstances>
<package3dinstance package3d_urn="urn:adsk.eagle:package:13308/1"/>
</package3dinstances>
<technologies>
<technology name="">
<attribute name="SPICEMODEL" value="NONE" constant="no"/>
<attribute name="SPICEPREFIX" value="R" constant="no"/>
</technology>
</technologies>
</device>
<device name="R6332" package="R6332">
<connects>
<connect gate="G$1" pin="1" pad="1"/>
<connect gate="G$1" pin="2" pad="2"/>
</connects>
<package3dinstances>
<package3dinstance package3d_urn="urn:adsk.eagle:package:13307/1"/>
</package3dinstances>
<technologies>
<technology name="">
<attribute name="SPICEMODEL" value="NONE" constant="no"/>
<attribute name="SPICEPREFIX" value="R" constant="no"/>
</technology>
</technologies>
</device>
</devices>
</deviceset>
</devicesets>
</library>
<library name="jumper" urn="urn:adsk.eagle:library:252">
<description>&lt;b&gt;Jumpers&lt;/b&gt;&lt;p&gt;
&lt;author&gt;Created by librarian@cadsoft.de&lt;/author&gt;</description>
<packages>
<package name="JP1" urn="urn:adsk.eagle:footprint:15398/1" library_version="1">
<description>&lt;b&gt;JUMPER&lt;/b&gt;</description>
<wire x1="-1.016" y1="0" x2="-1.27" y2="0.254" width="0.1524" layer="21"/>
<wire x1="-1.016" y1="0" x2="-1.27" y2="-0.254" width="0.1524" layer="21"/>
<wire x1="1.016" y1="0" x2="1.27" y2="0.254" width="0.1524" layer="21"/>
<wire x1="1.016" y1="0" x2="1.27" y2="-0.254" width="0.1524" layer="21"/>
<wire x1="1.27" y1="-0.254" x2="1.27" y2="-2.286" width="0.1524" layer="21"/>
<wire x1="1.016" y1="-2.54" x2="1.27" y2="-2.286" width="0.1524" layer="21"/>
<wire x1="1.27" y1="2.286" x2="1.016" y2="2.54" width="0.1524" layer="21"/>
<wire x1="1.27" y1="2.286" x2="1.27" y2="0.254" width="0.1524" layer="21"/>
<wire x1="1.016" y1="2.54" x2="-1.016" y2="2.54" width="0.1524" layer="21"/>
<wire x1="-1.27" y1="2.286" x2="-1.016" y2="2.54" width="0.1524" layer="21"/>
<wire x1="-1.27" y1="2.286" x2="-1.27" y2="0.254" width="0.1524" layer="21"/>
<wire x1="-1.27" y1="-0.254" x2="-1.27" y2="-2.286" width="0.1524" layer="21"/>
<wire x1="-1.016" y1="-2.54" x2="-1.27" y2="-2.286" width="0.1524" layer="21"/>
<wire x1="-1.016" y1="-2.54" x2="1.016" y2="-2.54" width="0.1524" layer="21"/>
<pad name="1" x="0" y="-1.27" drill="0.9144" shape="long"/>
<pad name="2" x="0" y="1.27" drill="0.9144" shape="long"/>
<text x="-1.651" y="-2.54" size="1.27" layer="25" ratio="10" rot="R90">&gt;NAME</text>
<text x="2.921" y="-2.54" size="1.27" layer="27" ratio="10" rot="R90">&gt;VALUE</text>
<rectangle x1="-0.3048" y1="0.9652" x2="0.3048" y2="1.5748" layer="51"/>
<rectangle x1="-0.3048" y1="-1.5748" x2="0.3048" y2="-0.9652" layer="51"/>
</package>
</packages>
<packages3d>
<package3d name="JP1" urn="urn:adsk.eagle:package:15455/1" type="box" library_version="1">
<description>JUMPER</description>
<packageinstances>
<packageinstance name="JP1"/>
</packageinstances>
</package3d>
</packages3d>
<symbols>
<symbol name="JP2E" urn="urn:adsk.eagle:symbol:15391/1" library_version="1">
<wire x1="0" y1="0" x2="0" y2="1.27" width="0.1524" layer="94"/>
<wire x1="0" y1="2.54" x2="0" y2="1.27" width="0.4064" layer="94"/>
<wire x1="2.54" y1="0" x2="2.54" y2="1.27" width="0.1524" layer="94"/>
<wire x1="2.54" y1="2.54" x2="2.54" y2="1.27" width="0.4064" layer="94"/>
<wire x1="-0.635" y1="0" x2="3.175" y2="0" width="0.4064" layer="94"/>
<wire x1="3.175" y1="0" x2="3.175" y2="0.635" width="0.4064" layer="94"/>
<wire x1="3.175" y1="0.635" x2="-0.635" y2="0.635" width="0.4064" layer="94"/>
<wire x1="-0.635" y1="0.635" x2="-0.635" y2="0" width="0.4064" layer="94"/>
<text x="-1.27" y="0" size="1.778" layer="95" rot="R90">&gt;NAME</text>
<text x="5.715" y="0" size="1.778" layer="96" rot="R90">&gt;VALUE</text>
<pin name="1" x="0" y="-2.54" visible="pad" length="short" direction="pas" rot="R90"/>
<pin name="2" x="2.54" y="-2.54" visible="pad" length="short" direction="pas" rot="R90"/>
</symbol>
</symbols>
<devicesets>
<deviceset name="JP1E" urn="urn:adsk.eagle:component:15487/1" prefix="JP" uservalue="yes" library_version="1">
<description>&lt;b&gt;JUMPER&lt;/b&gt;</description>
<gates>
<gate name="A" symbol="JP2E" x="2.54" y="0"/>
</gates>
<devices>
<device name="" package="JP1">
<connects>
<connect gate="A" pin="1" pad="1"/>
<connect gate="A" pin="2" pad="2"/>
</connects>
<package3dinstances>
<package3dinstance package3d_urn="urn:adsk.eagle:package:15455/1"/>
</package3dinstances>
<technologies>
<technology name=""/>
</technologies>
</device>
</devices>
</deviceset>
</devicesets>
</library>
<library name="diode" urn="urn:adsk.eagle:library:210">
<description>&lt;b&gt;Diodes&lt;/b&gt;&lt;p&gt;
Based on the following sources:
&lt;ul&gt;
&lt;li&gt;Motorola : www.onsemi.com
&lt;li&gt;Fairchild : www.fairchildsemi.com
&lt;li&gt;Philips : www.semiconductors.com
&lt;li&gt;Vishay : www.vishay.de
&lt;/ul&gt;
&lt;author&gt;Created by librarian@cadsoft.de&lt;/author&gt;</description>
<packages>
<package name="DO35-10" urn="urn:adsk.eagle:footprint:43092/1" library_version="2">
<description>&lt;B&gt;DIODE&lt;/B&gt;&lt;p&gt;
diameter 2 mm, horizontal, grid 10.16 mm</description>
<wire x1="5.08" y1="0" x2="4.191" y2="0" width="0.508" layer="51"/>
<wire x1="-5.08" y1="0" x2="-4.191" y2="0" width="0.508" layer="51"/>
<wire x1="-0.635" y1="0" x2="0" y2="0" width="0.1524" layer="21"/>
<wire x1="1.016" y1="0.635" x2="1.016" y2="-0.635" width="0.1524" layer="21"/>
<wire x1="1.016" y1="-0.635" x2="0" y2="0" width="0.1524" layer="21"/>
<wire x1="0" y1="0" x2="1.524" y2="0" width="0.1524" layer="21"/>
<wire x1="0" y1="0" x2="1.016" y2="0.635" width="0.1524" layer="21"/>
<wire x1="0" y1="0.635" x2="0" y2="0" width="0.1524" layer="21"/>
<wire x1="0" y1="0" x2="0" y2="-0.635" width="0.1524" layer="21"/>
<wire x1="2.032" y1="1.016" x2="2.286" y2="0.762" width="0.1524" layer="21" curve="-90"/>
<wire x1="-2.286" y1="0.762" x2="-2.032" y2="1.016" width="0.1524" layer="21" curve="-90"/>
<wire x1="-2.286" y1="-0.762" x2="-2.032" y2="-1.016" width="0.1524" layer="21" curve="90"/>
<wire x1="2.032" y1="-1.016" x2="2.286" y2="-0.762" width="0.1524" layer="21" curve="90"/>
<wire x1="2.286" y1="-0.762" x2="2.286" y2="0.762" width="0.1524" layer="21"/>
<wire x1="-2.286" y1="0.762" x2="-2.286" y2="-0.762" width="0.1524" layer="21"/>
<wire x1="-2.032" y1="1.016" x2="2.032" y2="1.016" width="0.1524" layer="21"/>
<wire x1="-2.032" y1="-1.016" x2="2.032" y2="-1.016" width="0.1524" layer="21"/>
<pad name="C" x="-5.08" y="0" drill="0.8128" shape="long"/>
<pad name="A" x="5.08" y="0" drill="0.8128" shape="long"/>
<text x="-2.159" y="1.27" size="1.27" layer="25" ratio="10">&gt;NAME</text>
<text x="-2.159" y="-2.667" size="1.27" layer="27" ratio="10">&gt;VALUE</text>
<rectangle x1="-1.905" y1="-1.016" x2="-1.397" y2="1.016" layer="21"/>
<rectangle x1="2.286" y1="-0.254" x2="4.191" y2="0.254" layer="21"/>
<rectangle x1="-4.191" y1="-0.254" x2="-2.286" y2="0.254" layer="21"/>
</package>
<package name="DO35-7" urn="urn:adsk.eagle:footprint:43093/1" library_version="2">
<description>&lt;B&gt;DIODE&lt;/B&gt;&lt;p&gt;
diameter 2 mm, horizontal, grid 7.62 mm</description>
<wire x1="3.81" y1="0" x2="2.921" y2="0" width="0.508" layer="51"/>
<wire x1="-3.81" y1="0" x2="-2.921" y2="0" width="0.508" layer="51"/>
<wire x1="-0.635" y1="0" x2="0" y2="0" width="0.1524" layer="21"/>
<wire x1="1.016" y1="0.635" x2="1.016" y2="-0.635" width="0.1524" layer="21"/>
<wire x1="1.016" y1="-0.635" x2="0" y2="0" width="0.1524" layer="21"/>
<wire x1="0" y1="0" x2="1.524" y2="0" width="0.1524" layer="21"/>
<wire x1="0" y1="0" x2="1.016" y2="0.635" width="0.1524" layer="21"/>
<wire x1="0" y1="0.635" x2="0" y2="0" width="0.1524" layer="21"/>
<wire x1="0" y1="0" x2="0" y2="-0.635" width="0.1524" layer="21"/>
<wire x1="2.032" y1="1.016" x2="2.286" y2="0.762" width="0.1524" layer="21" curve="-90"/>
<wire x1="2.286" y1="0.762" x2="2.286" y2="-0.762" width="0.1524" layer="21"/>
<wire x1="2.032" y1="-1.016" x2="2.286" y2="-0.762" width="0.1524" layer="21" curve="90"/>
<wire x1="-2.286" y1="0.762" x2="-2.032" y2="1.016" width="0.1524" layer="21" curve="-90"/>
<wire x1="-2.286" y1="-0.762" x2="-2.032" y2="-1.016" width="0.1524" layer="21" curve="90"/>
<wire x1="-2.032" y1="-1.016" x2="2.032" y2="-1.016" width="0.1524" layer="21"/>
<wire x1="-2.286" y1="0.762" x2="-2.286" y2="-0.762" width="0.1524" layer="21"/>
<wire x1="-2.032" y1="1.016" x2="2.032" y2="1.016" width="0.1524" layer="21"/>
<pad name="C" x="-3.81" y="0" drill="0.8128" shape="long"/>
<pad name="A" x="3.81" y="0" drill="0.8128" shape="long"/>
<text x="-2.286" y="1.27" size="1.27" layer="25" ratio="10">&gt;NAME</text>
<text x="-2.286" y="-2.667" size="1.27" layer="27" ratio="10">&gt;VALUE</text>
<rectangle x1="-1.905" y1="-1.016" x2="-1.397" y2="1.016" layer="21"/>
<rectangle x1="2.286" y1="-0.254" x2="2.921" y2="0.254" layer="21"/>
<rectangle x1="-2.921" y1="-0.254" x2="-2.286" y2="0.254" layer="21"/>
</package>
</packages>
<packages3d>
<package3d name="DO35-10" urn="urn:adsk.eagle:package:43344/2" type="model" library_version="2">
<description>DIODE
diameter 2 mm, horizontal, grid 10.16 mm</description>
<packageinstances>
<packageinstance name="DO35-10"/>
</packageinstances>
</package3d>
<package3d name="DO35-7" urn="urn:adsk.eagle:package:43339/1" type="box" library_version="2">
<description>DIODE
diameter 2 mm, horizontal, grid 7.62 mm</description>
<packageinstances>
<packageinstance name="DO35-7"/>
</packageinstances>
</package3d>
</packages3d>
<symbols>
<symbol name="D" urn="urn:adsk.eagle:symbol:43091/1" library_version="2">
<wire x1="-1.27" y1="-1.27" x2="1.27" y2="0" width="0.254" layer="94"/>
<wire x1="1.27" y1="0" x2="-1.27" y2="1.27" width="0.254" layer="94"/>
<wire x1="1.27" y1="1.27" x2="1.27" y2="0" width="0.254" layer="94"/>
<wire x1="-1.27" y1="1.27" x2="-1.27" y2="-1.27" width="0.254" layer="94"/>
<wire x1="1.27" y1="0" x2="1.27" y2="-1.27" width="0.254" layer="94"/>
<text x="2.54" y="0.4826" size="1.778" layer="95">&gt;NAME</text>
<text x="2.54" y="-2.3114" size="1.778" layer="96">&gt;VALUE</text>
<text x="-2.54" y="0" size="0.4064" layer="99" align="center">SpiceOrder 1</text>
<text x="2.54" y="0" size="0.4064" layer="99" align="center">SpiceOrder 2</text>
<pin name="A" x="-2.54" y="0" visible="off" length="short" direction="pas"/>
<pin name="C" x="2.54" y="0" visible="off" length="short" direction="pas" rot="R180"/>
</symbol>
</symbols>
<devicesets>
<deviceset name="1N4148" urn="urn:adsk.eagle:component:43496/2" prefix="D" library_version="2">
<description>&lt;B&gt;DIODE&lt;/B&gt;&lt;p&gt;
high speed (Philips)</description>
<gates>
<gate name="G$1" symbol="D" x="0" y="0"/>
</gates>
<devices>
<device name="DO35-10" package="DO35-10">
<connects>
<connect gate="G$1" pin="A" pad="A"/>
<connect gate="G$1" pin="C" pad="C"/>
</connects>
<package3dinstances>
<package3dinstance package3d_urn="urn:adsk.eagle:package:43344/2"/>
</package3dinstances>
<technologies>
<technology name=""/>
</technologies>
</device>
<device name="DO35-7" package="DO35-7">
<connects>
<connect gate="G$1" pin="A" pad="A"/>
<connect gate="G$1" pin="C" pad="C"/>
</connects>
<package3dinstances>
<package3dinstance package3d_urn="urn:adsk.eagle:package:43339/1"/>
</package3dinstances>
<technologies>
<technology name=""/>
</technologies>
</device>
</devices>
</deviceset>
</devicesets>
</library>
</libraries>
<attributes>
</attributes>
<variantdefs>
</variantdefs>
<classes>
<class number="0" name="default" width="0" drill="0">
</class>
</classes>
<parts>
<part name="X1" library="con-wago-500" library_urn="urn:adsk.eagle:library:195" deviceset="W237-112" device="" package3d_urn="urn:adsk.eagle:package:10689/1"/>
<part name="X2" library="con-wago-500" library_urn="urn:adsk.eagle:library:195" deviceset="W237-112" device="" package3d_urn="urn:adsk.eagle:package:10689/1"/>
<part name="X3" library="con-wago-500" library_urn="urn:adsk.eagle:library:195" deviceset="W237-112" device="" package3d_urn="urn:adsk.eagle:package:10689/1"/>
<part name="X4" library="con-wago-500" library_urn="urn:adsk.eagle:library:195" deviceset="W237-112" device="" package3d_urn="urn:adsk.eagle:package:10689/1"/>
<part name="L1" library="ngspice-simulation" library_urn="urn:adsk.eagle:library:527439" deviceset="L" device=""/>
<part name="L2" library="ngspice-simulation" library_urn="urn:adsk.eagle:library:527439" deviceset="L" device=""/>
<part name="F1" library="fuse" library_urn="urn:adsk.eagle:library:233" deviceset="19559" device="" package3d_urn="urn:adsk.eagle:package:14056/1"/>
<part name="C1" library="docu-dummy" library_urn="urn:adsk.eagle:library:215" deviceset="ELKO" device=""/>
<part name="C2" library="docu-dummy" library_urn="urn:adsk.eagle:library:215" deviceset="ELKO" device=""/>
<part name="R1" library="eagle-ltspice" library_urn="urn:adsk.eagle:library:217" deviceset="R" device="" package3d_urn="urn:adsk.eagle:package:13300/1"/>
<part name="R2" library="eagle-ltspice" library_urn="urn:adsk.eagle:library:217" deviceset="R" device="" package3d_urn="urn:adsk.eagle:package:13300/1"/>
<part name="JP1" library="jumper" library_urn="urn:adsk.eagle:library:252" deviceset="JP1E" device="" package3d_urn="urn:adsk.eagle:package:15455/1"/>
<part name="JP2" library="jumper" library_urn="urn:adsk.eagle:library:252" deviceset="JP1E" device="" package3d_urn="urn:adsk.eagle:package:15455/1"/>
<part name="X5" library="con-wago-500" library_urn="urn:adsk.eagle:library:195" deviceset="W237-112" device="" package3d_urn="urn:adsk.eagle:package:10689/1"/>
<part name="X6" library="con-wago-500" library_urn="urn:adsk.eagle:library:195" deviceset="W237-112" device="" package3d_urn="urn:adsk.eagle:package:10689/1"/>
<part name="D1" library="diode" library_urn="urn:adsk.eagle:library:210" deviceset="1N4148" device="DO35-7" package3d_urn="urn:adsk.eagle:package:43339/1"/>
</parts>
<sheets>
<sheet>
<plain>
<circle x="44.46" y="66.54" radius="2.54" width="0.1524" layer="91"/>
<circle x="121.92" y="66.04" radius="2.54" width="0.1524" layer="91"/>
<text x="121.1" y="65" size="1.778" layer="91">V</text>
<text x="43.7" y="65.6" size="1.778" layer="91">V</text>
<text x="15" y="76" size="1.778" layer="91">L</text>
<text x="15" y="56" size="1.778" layer="91">N</text>
<text x="30" y="78" size="1.778" layer="91">Sicherung</text>
<text x="56" y="78" size="1.778" layer="91">Diode</text>
<text x="68" y="62" size="1.778" layer="91" rot="R90">ELKO</text>
<text x="81" y="62" size="1.778" layer="91" rot="R90">ELKO</text>
<text x="90" y="69" size="1.778" layer="91" rot="R90">C</text>
<text x="115" y="69" size="1.778" layer="91" rot="R90">R</text>
<text x="128" y="79" size="1.778" layer="91">Aus +</text>
<text x="128" y="58" size="1.778" layer="91">GND</text>
</plain>
<instances>
<instance part="X1" gate="-1" x="17.78" y="76.2" smashed="yes">
<attribute name="VALUE" x="15.24" y="72.517" size="1.778" layer="96"/>
</instance>
<instance part="X2" gate="-1" x="17.78" y="55.88" smashed="yes">
<attribute name="VALUE" x="15.24" y="52.197" size="1.778" layer="96"/>
</instance>
<instance part="X3" gate="-1" x="132.08" y="55.88" smashed="yes" rot="R180">
<attribute name="VALUE" x="134.62" y="59.563" size="1.778" layer="96" rot="R180"/>
</instance>
<instance part="X4" gate="-1" x="132.08" y="76.2" smashed="yes" rot="R180">
<attribute name="VALUE" x="134.62" y="79.883" size="1.778" layer="96" rot="R180"/>
</instance>
<instance part="L1" gate="G$1" x="22.86" y="68.58" smashed="yes" rot="R270">
<attribute name="VALUE" x="20.32" y="71.12" size="1.778" layer="96" rot="R270"/>
</instance>
<instance part="L2" gate="G$1" x="30.48" y="66.04" smashed="yes" rot="R90">
<attribute name="VALUE" x="33.02" y="63.5" size="1.778" layer="96" rot="R90"/>
</instance>
<instance part="F1" gate="1" x="35.56" y="76.2" smashed="yes">
<attribute name="VALUE" x="31.75" y="73.279" size="1.778" layer="96"/>
</instance>
<instance part="C1" gate="G$1" x="83.82" y="66.04" smashed="yes"/>
<instance part="C2" gate="G$1" x="71.12" y="66.04" smashed="yes"/>
<instance part="R1" gate="G$1" x="96.52" y="63.5" smashed="yes" rot="R90">
<attribute name="NAME" x="95.0214" y="59.69" size="1.778" layer="95" rot="R90"/>
<attribute name="VALUE" x="99.822" y="59.69" size="1.778" layer="96" rot="R90"/>
</instance>
<instance part="R2" gate="G$1" x="109.22" y="63.5" smashed="yes" rot="R90">
<attribute name="NAME" x="107.7214" y="59.69" size="1.778" layer="95" rot="R90"/>
<attribute name="VALUE" x="112.522" y="59.69" size="1.778" layer="96" rot="R90"/>
</instance>
<instance part="JP1" gate="A" x="86.36" y="71.12" smashed="yes" rot="R270">
<attribute name="VALUE" x="86.36" y="65.405" size="1.778" layer="96"/>
</instance>
<instance part="JP2" gate="A" x="111.76" y="71.12" smashed="yes" rot="R270">
<attribute name="VALUE" x="111.76" y="65.405" size="1.778" layer="96"/>
</instance>
<instance part="X5" gate="-1" x="43.18" y="76.2" smashed="yes">
<attribute name="VALUE" x="40.64" y="72.517" size="1.778" layer="96"/>
</instance>
<instance part="X6" gate="-1" x="43.18" y="55.88" smashed="yes">
<attribute name="VALUE" x="40.64" y="52.197" size="1.778" layer="96"/>
</instance>
<instance part="D1" gate="G$1" x="58.42" y="76.2" smashed="yes"/>
</instances>
<busses>
</busses>
<nets>
<net name="N$1" class="0">
<segment>
<pinref part="X1" gate="-1" pin="KL"/>
<pinref part="L1" gate="G$1" pin="1"/>
<wire x1="22.86" y1="73.66" x2="22.86" y2="76.2" width="0.1524" layer="91"/>
</segment>
</net>
<net name="N$2" class="0">
<segment>
<pinref part="X2" gate="-1" pin="KL"/>
<pinref part="L1" gate="G$1" pin="2"/>
<wire x1="22.86" y1="60.96" x2="22.86" y2="55.88" width="0.1524" layer="91"/>
</segment>
</net>
<net name="N$3" class="0">
<segment>
<pinref part="L2" gate="G$1" pin="2"/>
<pinref part="F1" gate="1" pin="1"/>
<wire x1="30.48" y1="76.2" x2="30.48" y2="73.66" width="0.1524" layer="91"/>
</segment>
</net>
<net name="N$4" class="0">
<segment>
<pinref part="F1" gate="1" pin="2"/>
<wire x1="40.64" y1="76.2" x2="43.18" y2="76.2" width="0.1524" layer="91"/>
</segment>
</net>
<net name="N$5" class="0">
<segment>
<pinref part="L2" gate="G$1" pin="1"/>
<wire x1="30.48" y1="60.96" x2="30.48" y2="55.88" width="0.1524" layer="91"/>
<wire x1="30.48" y1="55.88" x2="43.18" y2="55.88" width="0.1524" layer="91"/>
</segment>
</net>
<net name="N$6" class="0">
<segment>
<pinref part="X5" gate="-1" pin="KL"/>
<pinref part="D1" gate="G$1" pin="A"/>
<wire x1="48.26" y1="76.2" x2="55.88" y2="76.2" width="0.1524" layer="91"/>
</segment>
</net>
<net name="N$7" class="0">
<segment>
<pinref part="X6" gate="-1" pin="KL"/>
<wire x1="48.26" y1="55.88" x2="71.12" y2="55.88" width="0.1524" layer="91"/>
<wire x1="71.12" y1="60.96" x2="71.12" y2="55.88" width="0.1524" layer="91"/>
<wire x1="83.82" y1="60.96" x2="83.82" y2="55.88" width="0.1524" layer="91"/>
<wire x1="83.82" y1="55.88" x2="71.12" y2="55.88" width="0.1524" layer="91"/>
<junction x="71.12" y="55.88"/>
<pinref part="R1" gate="G$1" pin="1"/>
<wire x1="96.52" y1="58.42" x2="96.52" y2="55.88" width="0.1524" layer="91"/>
<wire x1="96.52" y1="55.88" x2="83.82" y2="55.88" width="0.1524" layer="91"/>
<junction x="83.82" y="55.88"/>
<pinref part="R2" gate="G$1" pin="1"/>
<wire x1="109.22" y1="58.42" x2="109.22" y2="55.88" width="0.1524" layer="91"/>
<wire x1="109.22" y1="55.88" x2="96.52" y2="55.88" width="0.1524" layer="91"/>
<junction x="96.52" y="55.88"/>
<wire x1="109.22" y1="55.88" x2="127" y2="55.88" width="0.1524" layer="91"/>
<junction x="109.22" y="55.88"/>
<pinref part="X3" gate="-1" pin="KL"/>
</segment>
</net>
<net name="N$8" class="0">
<segment>
<pinref part="R2" gate="G$1" pin="2"/>
<pinref part="JP2" gate="A" pin="2"/>
</segment>
</net>
<net name="N$9" class="0">
<segment>
<pinref part="D1" gate="G$1" pin="C"/>
<wire x1="60.96" y1="76.2" x2="71.12" y2="76.2" width="0.1524" layer="91"/>
<wire x1="71.12" y1="76.2" x2="71.12" y2="68.58" width="0.1524" layer="91"/>
<pinref part="JP1" gate="A" pin="1"/>
<wire x1="83.82" y1="71.12" x2="83.82" y2="76.2" width="0.1524" layer="91"/>
<wire x1="83.82" y1="76.2" x2="71.12" y2="76.2" width="0.1524" layer="91"/>
<junction x="71.12" y="76.2"/>
<pinref part="R1" gate="G$1" pin="2"/>
<wire x1="96.52" y1="68.58" x2="96.52" y2="76.2" width="0.1524" layer="91"/>
<wire x1="96.52" y1="76.2" x2="83.82" y2="76.2" width="0.1524" layer="91"/>
<junction x="83.82" y="76.2"/>
<pinref part="JP2" gate="A" pin="1"/>
<wire x1="109.22" y1="71.12" x2="109.22" y2="76.2" width="0.1524" layer="91"/>
<wire x1="109.22" y1="76.2" x2="96.52" y2="76.2" width="0.1524" layer="91"/>
<junction x="96.52" y="76.2"/>
<wire x1="109.22" y1="76.2" x2="121.8" y2="76.2" width="0.1524" layer="91"/>
<junction x="109.22" y="76.2"/>
<pinref part="X4" gate="-1" pin="KL"/>
<wire x1="121.8" y1="76.2" x2="127" y2="76.2" width="0.1524" layer="91"/>
<wire x1="121.8" y1="68.6" x2="121.8" y2="76.2" width="0.1524" layer="91"/>
<wire x1="121.8" y1="76.2" x2="121.5" y2="75.1" width="0.1524" layer="91"/>
<wire x1="121.5" y1="75.1" x2="122.1" y2="75.1" width="0.1524" layer="91"/>
<wire x1="122.1" y1="75.1" x2="121.8" y2="76.2" width="0.1524" layer="91"/>
</segment>
</net>
<net name="N$10" class="0">
<segment>
<wire x1="25.4" y1="76.2" x2="25.4" y2="55.88" width="0.1524" layer="91"/>
</segment>
</net>
<net name="N$11" class="0">
<segment>
<wire x1="27.94" y1="76.2" x2="27.94" y2="55.88" width="0.1524" layer="91"/>
</segment>
</net>
<net name="N$12" class="0">
<segment>
<wire x1="44.4" y1="74.9" x2="44.4" y2="74.8" width="0.1524" layer="91"/>
<wire x1="44.4" y1="74.8" x2="44.4" y2="69.1" width="0.1524" layer="91"/>
<wire x1="44.4" y1="74.8" x2="44.2" y2="74" width="0.1524" layer="91"/>
<wire x1="44.2" y1="74" x2="44.6" y2="74" width="0.1524" layer="91"/>
<wire x1="44.6" y1="74" x2="44.4" y2="74.8" width="0.1524" layer="91"/>
</segment>
</net>
<net name="N$13" class="0">
<segment>
<wire x1="44.4" y1="64" x2="44.4" y2="57.3" width="0.1524" layer="91"/>
<wire x1="44.4" y1="57.3" x2="44.4" y2="57.2" width="0.1524" layer="91"/>
<wire x1="44.4" y1="57.3" x2="44.2" y2="57.9" width="0.1524" layer="91"/>
<wire x1="44.2" y1="57.9" x2="44.6" y2="57.9" width="0.1524" layer="91"/>
<wire x1="44.6" y1="57.9" x2="44.4" y2="57.2" width="0.1524" layer="91"/>
</segment>
</net>
<net name="N$14" class="0">
<segment>
<wire x1="121.9" y1="63.4" x2="121.9" y2="55.9" width="0.1524" layer="91"/>
<wire x1="121.9" y1="55.9" x2="121.8" y2="55.9" width="0.1524" layer="91"/>
<wire x1="121.9" y1="55.9" x2="121.6" y2="57.3" width="0.1524" layer="91"/>
<wire x1="121.6" y1="57.3" x2="122.2" y2="57.3" width="0.1524" layer="91"/>
<wire x1="122.2" y1="57.3" x2="121.9" y2="55.9" width="0.1524" layer="91"/>
</segment>
</net>
</nets>
</sheet>
</sheets>
</schematic>
</drawing>
<compatibility>
<note version="8.2" severity="warning">
Since Version 8.2, EAGLE supports online libraries. The ids
of those online libraries will not be understood (or retained)
with this version.
</note>
<note version="8.3" severity="warning">
Since Version 8.3, EAGLE supports URNs for individual library
assets (packages, symbols, and devices). The URNs of those assets
will not be understood (or retained) with this version.
</note>
<note version="8.3" severity="warning">
Since Version 8.3, EAGLE supports the association of 3D packages
with devices in libraries, schematics, and board files. Those 3D
packages will not be understood (or retained) with this version.
</note>
<note version="8.4" severity="warning">
Since Version 8.4, EAGLE supports properties for SPICE simulation. 
Probes in schematics and SPICE mapping objects found in parts and library devices
will not be understood with this version. Update EAGLE to the latest version
for full support of SPICE simulation. 
</note>
</compatibility>
</eagle>
