<?xml version="1.0" encoding="UTF-8"?>
<session version="1.0">
<refactoring accessors="true" comment="Delete element from project &apos;December&apos;&#x0D;&#x0A;- Original project: &apos;December&apos;&#x0D;&#x0A;- Original element: &apos;vierter.main.java&apos;" description="Delete element" element1="/src&lt;vierter{main.java" elements="1" flags="589830" id="org.eclipse.jdt.ui.delete" resources="0" stamp="1543910403283" subPackages="false" version="1.0"/>
</session>